
./octez-client --protocol ProtoALphaALphaALphaALphaALphaALphaALphaALphaDdp3zK --mode mockup --no-base-dir-warnings typecheck script tests_python/contracts_alpha/macros/map_caddaadr.tz --details
Well typed
Gas remaining: 1039966.766 units remaining
{ parameter unit ;
  storage (pair (pair nat (pair nat (pair (pair (pair (nat %p) (mutez %value)) nat) nat))) nat) ;
  code { MAP_CDADDAADR @new_storage %value
           { PUSH mutez 1000000
             /* [ mutez : mutez : pair nat mutez ] */ ;
             ADD
             /* [ mutez : pair nat mutez ] */ } ;
         NIL operation
         /* [ list operation
            : pair unit (pair nat nat (pair (pair nat mutez) nat) nat) nat ] */ ;
         SWAP
         /* [ pair unit (pair nat nat (pair (pair nat mutez) nat) nat) nat
            : list operation ] */ ;
         SET_CAR } }
