
./octez-client --protocol ProtoALphaALphaALphaALphaALphaALphaALphaALphaDdp3zK --mode mockup --no-base-dir-warnings typecheck script tests_python/contracts_alpha/mini_scenarios/weather_insurance.tz --details
Well typed
Gas remaining: 1039963.680 units remaining
{ parameter (pair (signature %signed_weather_data) (nat :rain %actual_level)) ;
  storage
    (pair (pair (address %under_key) (address %over_key))
          (pair (nat :rain %rain_level) (key %weather_service_key))) ;
  code { DUP
         /* [ pair (pair signature nat) (pair address address) nat key
            : pair (pair signature nat) (pair address address) nat key ] */ ;
         DUP
         /* [ pair (pair signature nat) (pair address address) nat key
            : pair (pair signature nat) (pair address address) nat key
            : pair (pair signature nat) (pair address address) nat key ] */ ;
         CAR
         /* [ pair signature nat
            : pair (pair signature nat) (pair address address) nat key
            : pair (pair signature nat) (pair address address) nat key ] */ ;
         MAP_CDR
           { PACK
             /* [ bytes : pair signature nat
                : pair (pair signature nat) (pair address address) nat key
                : pair (pair signature nat) (pair address address) nat key ] */ ;
             BLAKE2B
             /* [ bytes : pair signature nat
                : pair (pair signature nat) (pair address address) nat key
                : pair (pair signature nat) (pair address address) nat key ] */ } ;
         SWAP
         /* [ pair (pair signature nat) (pair address address) nat key
            : pair signature bytes
            : pair (pair signature nat) (pair address address) nat key ] */ ;
         CDDDR %weather_service_key ;
         DIP { UNPAIR
               /* [ signature : bytes
                  : pair (pair signature nat) (pair address address) nat key ] */ }
         /* [ key : signature : bytes
            : pair (pair signature nat) (pair address address) nat key ] */ ;
         CHECK_SIGNATURE @sigok
         /* [ bool : pair (pair signature nat) (pair address address) nat key ] */ ;
         ASSERT ;
         DUP
         /* [ pair (pair signature nat) (pair address address) nat key
            : pair (pair signature nat) (pair address address) nat key ] */ ;
         DUP
         /* [ pair (pair signature nat) (pair address address) nat key
            : pair (pair signature nat) (pair address address) nat key
            : pair (pair signature nat) (pair address address) nat key ] */ ;
         DUP
         /* [ pair (pair signature nat) (pair address address) nat key
            : pair (pair signature nat) (pair address address) nat key
            : pair (pair signature nat) (pair address address) nat key
            : pair (pair signature nat) (pair address address) nat key ] */ ;
         DIIIP
           { CDR %storage /* [ pair (pair address address) nat key ] */ }
         /* [ pair (pair signature nat) (pair address address) nat key
            : pair (pair signature nat) (pair address address) nat key
            : pair (pair signature nat) (pair address address) nat key
            : pair (pair address address) nat key ] */ ;
         DIIP { CDAR }
         /* [ pair (pair signature nat) (pair address address) nat key
            : pair (pair signature nat) (pair address address) nat key
            : pair address address : pair (pair address address) nat key ] */ ;
         DIP { CADR %actual_level }
         /* [ pair (pair signature nat) (pair address address) nat key : nat
            : pair address address : pair (pair address address) nat key ] */ ;
         CDDAR %rain_level ;
         CMPLT ;
         IF { CAR %under_key /* [ address : pair (pair address address) nat key ] */ }
            { CDR %over_key /* [ address : pair (pair address address) nat key ] */ } ;
         CONTRACT unit
         /* [ option (contract unit) : pair (pair address address) nat key ] */ ;
         ASSERT_SOME ;
         BALANCE
         /* [ mutez : contract unit : pair (pair address address) nat key ] */ ;
         UNIT
         /* [ unit : mutez : contract unit : pair (pair address address) nat key ] */ ;
         TRANSFER_TOKENS @trans.op
         /* [ operation : pair (pair address address) nat key ] */ ;
         NIL operation
         /* [ list operation : operation : pair (pair address address) nat key ] */ ;
         SWAP
         /* [ operation : list operation : pair (pair address address) nat key ] */ ;
         CONS
         /* [ list operation : pair (pair address address) nat key ] */ ;
         PAIR
         /* [ pair (list operation) (pair address address) nat key ] */ } }
