
./octez-client --protocol ProtoALphaALphaALphaALphaALphaALphaALphaALphaDdp3zK --mode mockup --no-base-dir-warnings typecheck script tests_python/contracts_alpha/opcodes/mul_overflow.tz --details
Well typed
Gas remaining: 1039992.344 units remaining
{ parameter (or unit unit) ;
  storage unit ;
  code { CAR
         /* [ or unit unit ] */ ;
         IF_LEFT
           { PUSH nat 922337203685477580700
             /* [ nat : unit ] */ ;
             PUSH mutez 10
             /* [ mutez : nat : unit ] */ ;
             MUL
             /* [ mutez : unit ] */ ;
             DROP
             /* [ unit ] */ }
           { PUSH mutez 10
             /* [ mutez : unit ] */ ;
             PUSH nat 922337203685477580700
             /* [ nat : mutez : unit ] */ ;
             MUL
             /* [ mutez : unit ] */ ;
             DROP
             /* [ unit ] */ } ;
         NIL operation
         /* [ list operation : unit ] */ ;
         PAIR
         /* [ pair (list operation) unit ] */ } }
