
./octez-client --protocol ProtoALphaALphaALphaALphaALphaALphaALphaALphaDdp3zK --mode mockup --no-base-dir-warnings typecheck script tests_python/contracts_alpha/opcodes/transfer_tokens.tz --details
Well typed
Gas remaining: 1039994.130 units remaining
{ parameter (contract unit) ;
  storage unit ;
  code { CAR
         /* [ contract unit ] */ ;
         DIP { UNIT /* [ unit ] */ }
         /* [ contract unit : unit ] */ ;
         PUSH mutez 100000000
         /* [ mutez : contract unit : unit ] */ ;
         UNIT
         /* [ unit : mutez : contract unit : unit ] */ ;
         TRANSFER_TOKENS
         /* [ operation : unit ] */ ;
         NIL operation
         /* [ list operation : operation : unit ] */ ;
         SWAP
         /* [ operation : list operation : unit ] */ ;
         CONS
         /* [ list operation : unit ] */ ;
         PAIR
         /* [ pair (list operation) unit ] */ } }
