
./octez-client --protocol ProtoALphaALphaALphaALphaALphaALphaALphaALphaDdp3zK --mode mockup --no-base-dir-warnings typecheck script tests_python/contracts_alpha/mini_scenarios/vote_for_delegate.tz --details
Well typed
Gas remaining: 1039945.231 units remaining
{ parameter (option key_hash) ;
  storage
    (pair (pair %mgr1 (address %addr) (option %key key_hash))
          (pair %mgr2 (address %addr) (option %key key_hash))) ;
  code { DUP
         /* [ pair (option key_hash) (pair address (option key_hash)) address (option key_hash)
            : pair (option key_hash) (pair address (option key_hash)) address (option key_hash) ] */ ;
         CDAAR %addr @% ;
         SENDER
         /* [ address : address
            : pair (option key_hash) (pair address (option key_hash)) address (option key_hash) ] */ ;
         PAIR %@ %@
         /* [ pair address address
            : pair (option key_hash) (pair address (option key_hash)) address (option key_hash) ] */ ;
         UNPAIR
         /* [ address : address
            : pair (option key_hash) (pair address (option key_hash)) address (option key_hash) ] */ ;
         IFCMPEQ
           { UNPAIR
             /* [ option key_hash
                : pair (pair address (option key_hash)) address (option key_hash) ] */ ;
             SWAP
             /* [ pair (pair address (option key_hash)) address (option key_hash)
                : option key_hash ] */ ;
             SET_CADR %key @changed_mgr1_key }
           { DUP
             /* [ pair (option key_hash) (pair address (option key_hash)) address (option key_hash)
                : pair (option key_hash) (pair address (option key_hash)) address (option key_hash) ] */ ;
             CDDAR ;
             SENDER
             /* [ address : address
                : pair (option key_hash) (pair address (option key_hash)) address (option key_hash) ] */ ;
             IFCMPEQ
               { UNPAIR
                 /* [ option key_hash
                    : pair (pair address (option key_hash)) address (option key_hash) ] */ ;
                 SWAP
                 /* [ pair (pair address (option key_hash)) address (option key_hash)
                    : option key_hash ] */ ;
                 SET_CDDR %key }
               { FAIL } } ;
         DUP
         /* [ pair (pair address (option key_hash)) address (option key_hash)
            : pair (pair address (option key_hash)) address (option key_hash) ] */ ;
         CADR ;
         DIP { DUP
               /* [ pair (pair address (option key_hash)) address (option key_hash)
                  : pair (pair address (option key_hash)) address (option key_hash) ] */ ;
               CDDR }
         /* [ option key_hash : option key_hash
            : pair (pair address (option key_hash)) address (option key_hash) ] */ ;
         IF_NONE
           { IF_NONE
               { NONE key_hash
                 /* [ option key_hash
                    : pair (pair address (option key_hash)) address (option key_hash) ] */ ;
                 SET_DELEGATE
                 /* [ operation
                    : pair (pair address (option key_hash)) address (option key_hash) ] */ ;
                 NIL operation
                 /* [ list operation : operation
                    : pair (pair address (option key_hash)) address (option key_hash) ] */ ;
                 SWAP
                 /* [ operation : list operation
                    : pair (pair address (option key_hash)) address (option key_hash) ] */ ;
                 CONS
                 /* [ list operation
                    : pair (pair address (option key_hash)) address (option key_hash) ] */ }
               { DROP
                 /* [ pair (pair address (option key_hash)) address (option key_hash) ] */ ;
                 NIL operation
                 /* [ list operation
                    : pair (pair address (option key_hash)) address (option key_hash) ] */ } }
           { SWAP
             /* [ option key_hash : key_hash
                : pair (pair address (option key_hash)) address (option key_hash) ] */ ;
             IF_SOME
               { DIP { DUP
                       /* [ key_hash : key_hash
                          : pair (pair address (option key_hash)) address (option key_hash) ] */ }
                 /* [ key_hash : key_hash : key_hash
                    : pair (pair address (option key_hash)) address (option key_hash) ] */ ;
                 IFCMPEQ
                   { SOME
                     /* [ option key_hash
                        : pair (pair address (option key_hash)) address (option key_hash) ] */ ;
                     SET_DELEGATE
                     /* [ operation
                        : pair (pair address (option key_hash)) address (option key_hash) ] */ ;
                     NIL operation
                     /* [ list operation : operation
                        : pair (pair address (option key_hash)) address (option key_hash) ] */ ;
                     SWAP
                     /* [ operation : list operation
                        : pair (pair address (option key_hash)) address (option key_hash) ] */ ;
                     CONS
                     /* [ list operation
                        : pair (pair address (option key_hash)) address (option key_hash) ] */ }
                   { DROP
                     /* [ pair (pair address (option key_hash)) address (option key_hash) ] */ ;
                     NIL operation
                     /* [ list operation
                        : pair (pair address (option key_hash)) address (option key_hash) ] */ } }
               { DROP
                 /* [ pair (pair address (option key_hash)) address (option key_hash) ] */ ;
                 NIL operation
                 /* [ list operation
                    : pair (pair address (option key_hash)) address (option key_hash) ] */ } } ;
         PAIR
         /* [ pair (list operation) (pair address (option key_hash)) address (option key_hash) ] */ } }
