
./octez-client --protocol ProtoALphaALphaALphaALphaALphaALphaALphaALphaDdp3zK --mode mockup --no-base-dir-warnings typecheck script tests_python/contracts_alpha/opcodes/self_address.tz --details
Well typed
Gas remaining: 1039990.189 units remaining
{ parameter unit ;
  storage unit ;
  code { DROP
         /* [] */ ;
         LAMBDA
           unit
           address
           { DROP /* [] */ ; SELF_ADDRESS /* [ address ] */ }
         /* [ lambda unit address ] */ ;
         UNIT
         /* [ unit : lambda unit address ] */ ;
         EXEC
         /* [ address ] */ ;
         SELF
         /* [ contract unit : address ] */ ;
         ADDRESS
         /* [ address : address ] */ ;
         ASSERT_CMPEQ ;
         UNIT
         /* [ unit ] */ ;
         NIL operation
         /* [ list operation : unit ] */ ;
         PAIR
         /* [ pair (list operation) unit ] */ } }
