
./octez-client --protocol PtLimaPtLMwfNinJi9rCfDPWea8dFgTZ1MeJ9f1m2SRic6ayiwW --mode mockup --no-base-dir-warnings typecheck script tests_python/contracts_015/opcodes/map_mem_string.tz --details
Well typed
Gas remaining: 1039993.554 units remaining
{ parameter string ;
  storage (pair (map string nat) (option bool)) ;
  code { UNPAIR
         /* [ string : pair (map string nat) (option bool) ] */ ;
         DIP { CAR /* [ map string nat ] */ ; DUP /* [ map string nat : map string nat ] */ }
         /* [ string : map string nat : map string nat ] */ ;
         MEM
         /* [ bool : map string nat ] */ ;
         SOME
         /* [ option bool : map string nat ] */ ;
         SWAP
         /* [ map string nat : option bool ] */ ;
         PAIR
         /* [ pair (map string nat) (option bool) ] */ ;
         NIL operation
         /* [ list operation : pair (map string nat) (option bool) ] */ ;
         PAIR
         /* [ pair (list operation) (map string nat) (option bool) ] */ } }
