
./octez-client --protocol PtLimaPtLMwfNinJi9rCfDPWea8dFgTZ1MeJ9f1m2SRic6ayiwW --mode mockup --no-base-dir-warnings typecheck script tests_python/contracts_015/opcodes/comb-set.tz --details
Well typed
Gas remaining: 1039991.623 units remaining
{ parameter unit ;
  storage (pair nat nat nat unit) ;
  code { CDR
         /* [ pair nat nat nat unit ] */ ;
         PUSH nat 2
         /* [ nat : pair nat nat nat unit ] */ ;
         UPDATE 1
         /* [ pair nat nat nat unit ] */ ;
         PUSH nat 12
         /* [ nat : pair nat nat nat unit ] */ ;
         UPDATE 3
         /* [ pair nat nat nat unit ] */ ;
         PUSH nat 8
         /* [ nat : pair nat nat nat unit ] */ ;
         UPDATE 5
         /* [ pair nat nat nat unit ] */ ;
         UNIT
         /* [ unit : pair nat nat nat unit ] */ ;
         UPDATE 6
         /* [ pair nat nat nat unit ] */ ;
         NIL operation
         /* [ list operation : pair nat nat nat unit ] */ ;
         PAIR
         /* [ pair (list operation) nat nat nat unit ] */ } }
