
./octez-client --protocol PtLimaPtLMwfNinJi9rCfDPWea8dFgTZ1MeJ9f1m2SRic6ayiwW --mode mockup --no-base-dir-warnings typecheck script tests_python/contracts_015/opcodes/contract.tz --details
Well typed
Gas remaining: 1039994.190 units remaining
{ parameter address ;
  storage unit ;
  code { CAR
         /* [ address ] */ ;
         CONTRACT unit
         /* [ option (contract unit) ] */ ;
         ASSERT_SOME ;
         DROP
         /* [] */ ;
         UNIT
         /* [ unit ] */ ;
         NIL operation
         /* [ list operation : unit ] */ ;
         PAIR
         /* [ pair (list operation) unit ] */ } }
