
./octez-client --protocol PtLimaPtLMwfNinJi9rCfDPWea8dFgTZ1MeJ9f1m2SRic6ayiwW --mode mockup --no-base-dir-warnings typecheck script tests_python/contracts_015/opcodes/or_binary.tz --details
Well typed
Gas remaining: 1039996.129 units remaining
{ parameter (pair nat nat) ;
  storage (option nat) ;
  code { CAR
         /* [ pair nat nat ] */ ;
         UNPAIR
         /* [ nat : nat ] */ ;
         OR
         /* [ nat ] */ ;
         SOME
         /* [ option nat ] */ ;
         NIL operation
         /* [ list operation : option nat ] */ ;
         PAIR
         /* [ pair (list operation) (option nat) ] */ } }
