
./octez-client --protocol PtLimaPtLMwfNinJi9rCfDPWea8dFgTZ1MeJ9f1m2SRic6ayiwW --mode mockup --no-base-dir-warnings typecheck script tests_python/contracts_015/opcodes/xor.tz --details
Well typed
Gas remaining: 1039992.584 units remaining
{ parameter (or (pair bool bool) (pair nat nat)) ;
  storage (option (or bool nat)) ;
  code { CAR
         /* [ or (pair bool bool) (pair nat nat) ] */ ;
         IF_LEFT
           { UNPAIR /* [ bool : bool ] */ ; XOR /* [ bool ] */ ; LEFT nat /* [ or bool nat ] */ }
           { UNPAIR /* [ nat : nat ] */ ; XOR /* [ nat ] */ ; RIGHT bool /* [ or bool nat ] */ } ;
         SOME
         /* [ option (or bool nat) ] */ ;
         NIL operation
         /* [ list operation : option (or bool nat) ] */ ;
         PAIR
         /* [ pair (list operation) (option (or bool nat)) ] */ } }
