
./octez-client --protocol PtLimaPtLMwfNinJi9rCfDPWea8dFgTZ1MeJ9f1m2SRic6ayiwW --mode mockup --no-base-dir-warnings typecheck script tests_python/contracts_015/mini_scenarios/execution_order_appender.tz --details
Well typed
Gas remaining: 1039990.644 units remaining
{ parameter unit ;
  storage (pair address string) ;
  code { CDR
         /* [ pair address string ] */ ;
         DUP
         /* [ pair address string : pair address string ] */ ;
         UNPAIR
         /* [ address : string : pair address string ] */ ;
         CONTRACT string
         /* [ option (contract string) : string : pair address string ] */ ;
         ASSERT_SOME ;
         PUSH mutez 0
         /* [ mutez : contract string : string : pair address string ] */ ;
         DIG 2
         /* [ string : mutez : contract string : pair address string ] */ ;
         TRANSFER_TOKENS
         /* [ operation : pair address string ] */ ;
         NIL operation
         /* [ list operation : operation : pair address string ] */ ;
         SWAP
         /* [ operation : list operation : pair address string ] */ ;
         CONS
         /* [ list operation : pair address string ] */ ;
         PAIR
         /* [ pair (list operation) address string ] */ } }
