
./octez-client --protocol PtLimaPtLMwfNinJi9rCfDPWea8dFgTZ1MeJ9f1m2SRic6ayiwW --mode mockup --no-base-dir-warnings typecheck script tests_python/contracts_015/non_regression/262_bug.tz --details
Well typed
Gas remaining: 1039995.909 units remaining
{ parameter unit ;
  storage unit ;
  code { DROP
         /* [] */ ;
         LAMBDA unit unit { /* [ unit ] */ }
         /* [ lambda unit unit ] */ ;
         UNIT
         /* [ unit : lambda unit unit ] */ ;
         EXEC
         /* [ unit ] */ ;
         NIL operation
         /* [ list operation : unit ] */ ;
         PAIR
         /* [ pair (list operation) unit ] */ } }
