
./octez-client --protocol PtLimaPtLMwfNinJi9rCfDPWea8dFgTZ1MeJ9f1m2SRic6ayiwW --mode mockup --no-base-dir-warnings typecheck script tests_python/contracts_015/opcodes/set_cdr.tz --details
Well typed
Gas remaining: 1039992.742 units remaining
{ parameter nat ;
  storage (pair (string %s) (nat %n)) ;
  code { DUP
         /* [ pair nat string nat : pair nat string nat ] */ ;
         CDR
         /* [ pair string nat : pair nat string nat ] */ ;
         DIP { CAR /* [ nat ] */ }
         /* [ pair string nat : nat ] */ ;
         SET_CDR %n ;
         NIL operation
         /* [ list operation : pair string nat ] */ ;
         PAIR
         /* [ pair (list operation) string nat ] */ } }
