
./octez-client --protocol PtLimaPtLMwfNinJi9rCfDPWea8dFgTZ1MeJ9f1m2SRic6ayiwW --mode mockup --no-base-dir-warnings typecheck script tests_python/contracts_015/macros/pair_macro.tz --details
Well typed
Gas remaining: 1039988.858 units remaining
{ parameter unit ;
  storage unit ;
  code { UNIT
         /* [ unit : pair unit unit ] */ ;
         UNIT
         /* [ unit : unit : pair unit unit ] */ ;
         UNIT
         /* [ unit : unit : unit : pair unit unit ] */ ;
         UNIT
         /* [ unit : unit : unit : unit : pair unit unit ] */ ;
         UNIT
         /* [ unit : unit : unit : unit : unit : pair unit unit ] */ ;
         PAPAPAPAIR @name %x1 %x2 %x3 %x4 %x5 ;
         CDDDAR %x4 @fourth ;
         DROP
         /* [ pair unit unit ] */ ;
         CDR
         /* [ unit ] */ ;
         NIL operation
         /* [ list operation : unit ] */ ;
         PAIR
         /* [ pair (list operation) unit ] */ } }
