
./octez-client --protocol PtLimaPtLMwfNinJi9rCfDPWea8dFgTZ1MeJ9f1m2SRic6ayiwW --mode mockup --no-base-dir-warnings typecheck script tests_python/contracts_015/attic/queue.tz --details
Well typed
Gas remaining: 1039958.584 units remaining
{ parameter (option string) ;
  storage (pair (option string) (pair (pair nat nat) (map nat string))) ;
  code { DUP
         /* [ pair (option string) (option string) (pair nat nat) (map nat string)
            : pair (option string) (option string) (pair nat nat) (map nat string) ] */ ;
         CAR
         /* [ option string
            : pair (option string) (option string) (pair nat nat) (map nat string) ] */ ;
         IF_NONE
           { CDDR ;
             DUP
             /* [ pair (pair nat nat) (map nat string)
                : pair (pair nat nat) (map nat string) ] */ ;
             CAR
             /* [ pair nat nat : pair (pair nat nat) (map nat string) ] */ ;
             DIP { CDR /* [ map nat string ] */ ; DUP /* [ map nat string : map nat string ] */ }
             /* [ pair nat nat : map nat string : map nat string ] */ ;
             DUP
             /* [ pair nat nat : pair nat nat : map nat string : map nat string ] */ ;
             CAR
             /* [ nat : pair nat nat : map nat string : map nat string ] */ ;
             SWAP
             /* [ pair nat nat : nat : map nat string : map nat string ] */ ;
             DIP { GET /* [ option string : map nat string ] */ }
             /* [ pair nat nat : option string : map nat string ] */ ;
             SWAP
             /* [ option string : pair nat nat : map nat string ] */ ;
             IF_NONE
               { NONE string
                 /* [ option string : pair nat nat : map nat string ] */ ;
                 DIP { PAIR /* [ pair (pair nat nat) (map nat string) ] */ }
                 /* [ option string : pair (pair nat nat) (map nat string) ] */ ;
                 PAIR
                 /* [ pair (option string) (pair nat nat) (map nat string) ] */ }
               { SOME
                 /* [ option string : pair nat nat : map nat string ] */ ;
                 DIP { DUP
                       /* [ pair nat nat : pair nat nat : map nat string ] */ ;
                       DIP { CAR
                             /* [ nat : map nat string ] */ ;
                             DIP { NONE string /* [ option string : map nat string ] */ }
                             /* [ nat : option string : map nat string ] */ ;
                             UPDATE
                             /* [ map nat string ] */ }
                       /* [ pair nat nat : map nat string ] */ ;
                       DUP
                       /* [ pair nat nat : pair nat nat : map nat string ] */ ;
                       CAR
                       /* [ nat : pair nat nat : map nat string ] */ ;
                       PUSH nat 1
                       /* [ nat : nat : pair nat nat : map nat string ] */ ;
                       ADD
                       /* [ nat : pair nat nat : map nat string ] */ ;
                       DIP { CDR /* [ nat : map nat string ] */ }
                       /* [ nat : nat : map nat string ] */ ;
                       PAIR
                       /* [ pair nat nat : map nat string ] */ ;
                       PAIR
                       /* [ pair (pair nat nat) (map nat string) ] */ }
                 /* [ option string : pair (pair nat nat) (map nat string) ] */ ;
                 PAIR
                 /* [ pair (option string) (pair nat nat) (map nat string) ] */ } }
           { DIP { DUP
                   /* [ pair (option string) (option string) (pair nat nat) (map nat string)
                      : pair (option string) (option string) (pair nat nat) (map nat string) ] */ ;
                   CDDAR ;
                   DIP { CDDDR }
                   /* [ pair nat nat : map nat string ] */ ;
                   DUP
                   /* [ pair nat nat : pair nat nat : map nat string ] */ }
             /* [ string : pair nat nat : pair nat nat : map nat string ] */ ;
             SWAP
             /* [ pair nat nat : string : pair nat nat : map nat string ] */ ;
             CAR
             /* [ nat : string : pair nat nat : map nat string ] */ ;
             DIP { SOME
                   /* [ option string : pair nat nat : map nat string ] */ ;
                   SWAP
                   /* [ pair nat nat : option string : map nat string ] */ ;
                   CDR
                   /* [ nat : option string : map nat string ] */ ;
                   DUP
                   /* [ nat : nat : option string : map nat string ] */ ;
                   DIP { UPDATE /* [ map nat string ] */ }
                   /* [ nat : map nat string ] */ ;
                   PUSH nat 1
                   /* [ nat : nat : map nat string ] */ ;
                   ADD
                   /* [ nat : map nat string ] */ }
             /* [ nat : nat : map nat string ] */ ;
             PAIR
             /* [ pair nat nat : map nat string ] */ ;
             PAIR
             /* [ pair (pair nat nat) (map nat string) ] */ ;
             NONE string
             /* [ option string : pair (pair nat nat) (map nat string) ] */ ;
             PAIR
             /* [ pair (option string) (pair nat nat) (map nat string) ] */ } ;
         NIL operation
         /* [ list operation : pair (option string) (pair nat nat) (map nat string) ] */ ;
         PAIR
         /* [ pair (list operation) (option string) (pair nat nat) (map nat string) ] */ } }
