
./octez-client --protocol PtLimaPtLMwfNinJi9rCfDPWea8dFgTZ1MeJ9f1m2SRic6ayiwW --mode mockup --no-base-dir-warnings typecheck script tests_python/contracts_015/macros/assert.tz --details
Well typed
Gas remaining: 1039995.213 units remaining
{ parameter bool ;
  storage unit ;
  code { CAR
         /* [ bool ] */ ;
         ASSERT ;
         UNIT
         /* [ unit ] */ ;
         NIL operation
         /* [ list operation : unit ] */ ;
         PAIR
         /* [ pair (list operation) unit ] */ } }
