
./octez-client --protocol PtLimaPtLMwfNinJi9rCfDPWea8dFgTZ1MeJ9f1m2SRic6ayiwW --mode mockup --no-base-dir-warnings typecheck script tests_python/contracts_015/opcodes/and_logical_1.tz --details
Well typed
Gas remaining: 1039996.814 units remaining
{ parameter (pair bool bool) ;
  storage bool ;
  code { CAR
         /* [ pair bool bool ] */ ;
         UNPAIR
         /* [ bool : bool ] */ ;
         AND @and
         /* [ bool ] */ ;
         NIL @noop operation
         /* [ list operation : bool ] */ ;
         PAIR
         /* [ pair (list operation) bool ] */ } }
