
./octez-client --protocol PtMumbaiP9THCizHVy23Zu3xCjTpNLWirfXY3kitfyd2nkvTbCj --mode mockup --no-base-dir-warnings typecheck script tests_python/contracts_016/opcodes/dign.tz --details
Well typed
Gas remaining: 1039992.220 units remaining
{ parameter (pair (pair (pair (pair nat nat) nat) nat) nat) ;
  storage nat ;
  code { CAR
         /* [ pair (pair (pair (pair nat nat) nat) nat) nat ] */ ;
         UNPAIR
         /* [ pair (pair (pair nat nat) nat) nat : nat ] */ ;
         UNPAIR
         /* [ pair (pair nat nat) nat : nat : nat ] */ ;
         UNPAIR
         /* [ pair nat nat : nat : nat : nat ] */ ;
         UNPAIR
         /* [ nat : nat : nat : nat : nat ] */ ;
         DIG 4
         /* [ nat : nat : nat : nat : nat ] */ ;
         DIP { DROP /* [ nat : nat : nat ] */ ; DROP /* [ nat : nat ] */ ; DROP /* [ nat ] */ ; DROP /* [] */ }
         /* [ nat ] */ ;
         NIL operation
         /* [ list operation : nat ] */ ;
         PAIR
         /* [ pair (list operation) nat ] */ } }
