
./octez-client --protocol PtMumbaiP9THCizHVy23Zu3xCjTpNLWirfXY3kitfyd2nkvTbCj --mode mockup --no-base-dir-warnings typecheck script tests_python/contracts_016/opcodes/map_mem_nat.tz --details
Well typed
Gas remaining: 1039993.554 units remaining
{ parameter nat ;
  storage (pair (map nat nat) (option bool)) ;
  code { UNPAIR
         /* [ nat : pair (map nat nat) (option bool) ] */ ;
         DIP { CAR /* [ map nat nat ] */ ; DUP /* [ map nat nat : map nat nat ] */ }
         /* [ nat : map nat nat : map nat nat ] */ ;
         MEM
         /* [ bool : map nat nat ] */ ;
         SOME
         /* [ option bool : map nat nat ] */ ;
         SWAP
         /* [ map nat nat : option bool ] */ ;
         PAIR
         /* [ pair (map nat nat) (option bool) ] */ ;
         NIL operation
         /* [ list operation : pair (map nat nat) (option bool) ] */ ;
         PAIR
         /* [ pair (list operation) (map nat nat) (option bool) ] */ } }
