
./octez-client --protocol PtMumbaiP9THCizHVy23Zu3xCjTpNLWirfXY3kitfyd2nkvTbCj --mode mockup --no-base-dir-warnings typecheck script tests_python/contracts_016/opcodes/sha3.tz --details
Well typed
Gas remaining: 1039996.837 units remaining
{ storage (option bytes) ;
  parameter bytes ;
  code { CAR
         /* [ bytes ] */ ;
         SHA3
         /* [ bytes ] */ ;
         SOME
         /* [ option bytes ] */ ;
         NIL operation
         /* [ list operation : option bytes ] */ ;
         PAIR
         /* [ pair (list operation) (option bytes) ] */ } }
