
./octez-client --protocol PtMumbaiP9THCizHVy23Zu3xCjTpNLWirfXY3kitfyd2nkvTbCj --mode mockup --no-base-dir-warnings typecheck script tests_python/contracts_016/opcodes/view_op_toplevel_inconsistent_input_type.tz --details
Well typed
Gas remaining: 1039993.919 units remaining
{ parameter (pair int address) ;
  storage nat ;
  code { CAR
         /* [ pair int address ] */ ;
         UNPAIR
         /* [ int : address ] */ ;
         VIEW "add" nat
         /* [ option nat ] */ ;
         IF_SOME { DROP /* [] */ ; PUSH nat 1 /* [ nat ] */ } { PUSH nat 0 /* [ nat ] */ } ;
         NIL operation
         /* [ list operation : nat ] */ ;
         PAIR
         /* [ pair (list operation) nat ] */ } }
