
./octez-client --protocol PtMumbaiP9THCizHVy23Zu3xCjTpNLWirfXY3kitfyd2nkvTbCj --mode mockup --no-base-dir-warnings typecheck script tests_python/contracts_016/opcodes/comb-get.tz --details
Well typed
Gas remaining: 1039966.252 units remaining
{ parameter (pair nat nat nat unit) ;
  storage unit ;
  code { CAR
         /* [ pair nat nat nat unit ] */ ;
         DUP
         /* [ pair nat nat nat unit : pair nat nat nat unit ] */ ;
         CAR
         /* [ nat : pair nat nat nat unit ] */ ;
         PUSH nat 1
         /* [ nat : nat : pair nat nat nat unit ] */ ;
         ASSERT_CMPEQ ;
         DUP
         /* [ pair nat nat nat unit : pair nat nat nat unit ] */ ;
         GET 1
         /* [ nat : pair nat nat nat unit ] */ ;
         PUSH nat 1
         /* [ nat : nat : pair nat nat nat unit ] */ ;
         ASSERT_CMPEQ ;
         DUP
         /* [ pair nat nat nat unit : pair nat nat nat unit ] */ ;
         GET 3
         /* [ nat : pair nat nat nat unit ] */ ;
         PUSH nat 4
         /* [ nat : nat : pair nat nat nat unit ] */ ;
         ASSERT_CMPEQ ;
         DUP
         /* [ pair nat nat nat unit : pair nat nat nat unit ] */ ;
         GET 5
         /* [ nat : pair nat nat nat unit ] */ ;
         PUSH nat 2
         /* [ nat : nat : pair nat nat nat unit ] */ ;
         ASSERT_CMPEQ ;
         DUP
         /* [ pair nat nat nat unit : pair nat nat nat unit ] */ ;
         GET 6
         /* [ unit : pair nat nat nat unit ] */ ;
         UNIT
         /* [ unit : unit : pair nat nat nat unit ] */ ;
         ASSERT_CMPEQ ;
         DROP
         /* [] */ ;
         UNIT
         /* [ unit ] */ ;
         NIL operation
         /* [ list operation : unit ] */ ;
         PAIR
         /* [ pair (list operation) unit ] */ } }
