
./octez-client --protocol PtMumbaiP9THCizHVy23Zu3xCjTpNLWirfXY3kitfyd2nkvTbCj --mode mockup --no-base-dir-warnings typecheck script tests_python/contracts_016/opcodes/none.tz --details
Well typed
Gas remaining: 1039997.217 units remaining
{ parameter unit ;
  storage (option nat) ;
  code { DROP
         /* [] */ ;
         NONE nat
         /* [ option nat ] */ ;
         NIL operation
         /* [ list operation : option nat ] */ ;
         PAIR
         /* [ pair (list operation) (option nat) ] */ } }
