
./octez-client --protocol PtMumbaiP9THCizHVy23Zu3xCjTpNLWirfXY3kitfyd2nkvTbCj --mode mockup --no-base-dir-warnings typecheck script tests_python/contracts_016/opcodes/dig_eq.tz --details
Well typed
Gas remaining: 1039909.247 units remaining
{ parameter
    (pair nat nat nat nat nat nat nat nat nat nat nat nat nat nat nat nat nat) ;
  storage unit ;
  code { CAR
         /* [ pair nat nat nat nat nat nat nat nat nat nat nat nat nat nat nat nat nat ] */ ;
         DUP
         /* [ pair nat nat nat nat nat nat nat nat nat nat nat nat nat nat nat nat nat
            : pair nat nat nat nat nat nat nat nat nat nat nat nat nat nat nat nat nat ] */ ;
         UNPAPAPAPAPAPAPAPAPAPAPAPAPAPAPAPAIR ;
         DIG 0
         /* [ nat : nat : nat : nat : nat : nat : nat : nat : nat : nat : nat : nat : nat
            : nat : nat : nat : nat
            : pair nat nat nat nat nat nat nat nat nat nat nat nat nat nat nat nat nat ] */ ;
         DIG 1
         /* [ nat : nat : nat : nat : nat : nat : nat : nat : nat : nat : nat : nat : nat
            : nat : nat : nat : nat
            : pair nat nat nat nat nat nat nat nat nat nat nat nat nat nat nat nat nat ] */ ;
         DIG 2
         /* [ nat : nat : nat : nat : nat : nat : nat : nat : nat : nat : nat : nat : nat
            : nat : nat : nat : nat
            : pair nat nat nat nat nat nat nat nat nat nat nat nat nat nat nat nat nat ] */ ;
         DIG 3
         /* [ nat : nat : nat : nat : nat : nat : nat : nat : nat : nat : nat : nat : nat
            : nat : nat : nat : nat
            : pair nat nat nat nat nat nat nat nat nat nat nat nat nat nat nat nat nat ] */ ;
         DIG 4
         /* [ nat : nat : nat : nat : nat : nat : nat : nat : nat : nat : nat : nat : nat
            : nat : nat : nat : nat
            : pair nat nat nat nat nat nat nat nat nat nat nat nat nat nat nat nat nat ] */ ;
         DIG 5
         /* [ nat : nat : nat : nat : nat : nat : nat : nat : nat : nat : nat : nat : nat
            : nat : nat : nat : nat
            : pair nat nat nat nat nat nat nat nat nat nat nat nat nat nat nat nat nat ] */ ;
         DIG 6
         /* [ nat : nat : nat : nat : nat : nat : nat : nat : nat : nat : nat : nat : nat
            : nat : nat : nat : nat
            : pair nat nat nat nat nat nat nat nat nat nat nat nat nat nat nat nat nat ] */ ;
         DIG 7
         /* [ nat : nat : nat : nat : nat : nat : nat : nat : nat : nat : nat : nat : nat
            : nat : nat : nat : nat
            : pair nat nat nat nat nat nat nat nat nat nat nat nat nat nat nat nat nat ] */ ;
         DIG 8
         /* [ nat : nat : nat : nat : nat : nat : nat : nat : nat : nat : nat : nat : nat
            : nat : nat : nat : nat
            : pair nat nat nat nat nat nat nat nat nat nat nat nat nat nat nat nat nat ] */ ;
         DIG 9
         /* [ nat : nat : nat : nat : nat : nat : nat : nat : nat : nat : nat : nat : nat
            : nat : nat : nat : nat
            : pair nat nat nat nat nat nat nat nat nat nat nat nat nat nat nat nat nat ] */ ;
         DIG 10
         /* [ nat : nat : nat : nat : nat : nat : nat : nat : nat : nat : nat : nat : nat
            : nat : nat : nat : nat
            : pair nat nat nat nat nat nat nat nat nat nat nat nat nat nat nat nat nat ] */ ;
         DIG 11
         /* [ nat : nat : nat : nat : nat : nat : nat : nat : nat : nat : nat : nat : nat
            : nat : nat : nat : nat
            : pair nat nat nat nat nat nat nat nat nat nat nat nat nat nat nat nat nat ] */ ;
         DIG 12
         /* [ nat : nat : nat : nat : nat : nat : nat : nat : nat : nat : nat : nat : nat
            : nat : nat : nat : nat
            : pair nat nat nat nat nat nat nat nat nat nat nat nat nat nat nat nat nat ] */ ;
         DIG 13
         /* [ nat : nat : nat : nat : nat : nat : nat : nat : nat : nat : nat : nat : nat
            : nat : nat : nat : nat
            : pair nat nat nat nat nat nat nat nat nat nat nat nat nat nat nat nat nat ] */ ;
         DIG 14
         /* [ nat : nat : nat : nat : nat : nat : nat : nat : nat : nat : nat : nat : nat
            : nat : nat : nat : nat
            : pair nat nat nat nat nat nat nat nat nat nat nat nat nat nat nat nat nat ] */ ;
         DIG 15
         /* [ nat : nat : nat : nat : nat : nat : nat : nat : nat : nat : nat : nat : nat
            : nat : nat : nat : nat
            : pair nat nat nat nat nat nat nat nat nat nat nat nat nat nat nat nat nat ] */ ;
         DIG 16
         /* [ nat : nat : nat : nat : nat : nat : nat : nat : nat : nat : nat : nat : nat
            : nat : nat : nat : nat
            : pair nat nat nat nat nat nat nat nat nat nat nat nat nat nat nat nat nat ] */ ;
         DIG 0
         /* [ nat : nat : nat : nat : nat : nat : nat : nat : nat : nat : nat : nat : nat
            : nat : nat : nat : nat
            : pair nat nat nat nat nat nat nat nat nat nat nat nat nat nat nat nat nat ] */ ;
         DIG 1
         /* [ nat : nat : nat : nat : nat : nat : nat : nat : nat : nat : nat : nat : nat
            : nat : nat : nat : nat
            : pair nat nat nat nat nat nat nat nat nat nat nat nat nat nat nat nat nat ] */ ;
         DIG 2
         /* [ nat : nat : nat : nat : nat : nat : nat : nat : nat : nat : nat : nat : nat
            : nat : nat : nat : nat
            : pair nat nat nat nat nat nat nat nat nat nat nat nat nat nat nat nat nat ] */ ;
         DIG 3
         /* [ nat : nat : nat : nat : nat : nat : nat : nat : nat : nat : nat : nat : nat
            : nat : nat : nat : nat
            : pair nat nat nat nat nat nat nat nat nat nat nat nat nat nat nat nat nat ] */ ;
         DIG 4
         /* [ nat : nat : nat : nat : nat : nat : nat : nat : nat : nat : nat : nat : nat
            : nat : nat : nat : nat
            : pair nat nat nat nat nat nat nat nat nat nat nat nat nat nat nat nat nat ] */ ;
         DIG 5
         /* [ nat : nat : nat : nat : nat : nat : nat : nat : nat : nat : nat : nat : nat
            : nat : nat : nat : nat
            : pair nat nat nat nat nat nat nat nat nat nat nat nat nat nat nat nat nat ] */ ;
         DIG 6
         /* [ nat : nat : nat : nat : nat : nat : nat : nat : nat : nat : nat : nat : nat
            : nat : nat : nat : nat
            : pair nat nat nat nat nat nat nat nat nat nat nat nat nat nat nat nat nat ] */ ;
         DIG 7
         /* [ nat : nat : nat : nat : nat : nat : nat : nat : nat : nat : nat : nat : nat
            : nat : nat : nat : nat
            : pair nat nat nat nat nat nat nat nat nat nat nat nat nat nat nat nat nat ] */ ;
         DIG 8
         /* [ nat : nat : nat : nat : nat : nat : nat : nat : nat : nat : nat : nat : nat
            : nat : nat : nat : nat
            : pair nat nat nat nat nat nat nat nat nat nat nat nat nat nat nat nat nat ] */ ;
         DIG 9
         /* [ nat : nat : nat : nat : nat : nat : nat : nat : nat : nat : nat : nat : nat
            : nat : nat : nat : nat
            : pair nat nat nat nat nat nat nat nat nat nat nat nat nat nat nat nat nat ] */ ;
         DIG 10
         /* [ nat : nat : nat : nat : nat : nat : nat : nat : nat : nat : nat : nat : nat
            : nat : nat : nat : nat
            : pair nat nat nat nat nat nat nat nat nat nat nat nat nat nat nat nat nat ] */ ;
         DIG 11
         /* [ nat : nat : nat : nat : nat : nat : nat : nat : nat : nat : nat : nat : nat
            : nat : nat : nat : nat
            : pair nat nat nat nat nat nat nat nat nat nat nat nat nat nat nat nat nat ] */ ;
         DIG 12
         /* [ nat : nat : nat : nat : nat : nat : nat : nat : nat : nat : nat : nat : nat
            : nat : nat : nat : nat
            : pair nat nat nat nat nat nat nat nat nat nat nat nat nat nat nat nat nat ] */ ;
         DIG 13
         /* [ nat : nat : nat : nat : nat : nat : nat : nat : nat : nat : nat : nat : nat
            : nat : nat : nat : nat
            : pair nat nat nat nat nat nat nat nat nat nat nat nat nat nat nat nat nat ] */ ;
         DIG 14
         /* [ nat : nat : nat : nat : nat : nat : nat : nat : nat : nat : nat : nat : nat
            : nat : nat : nat : nat
            : pair nat nat nat nat nat nat nat nat nat nat nat nat nat nat nat nat nat ] */ ;
         DIG 15
         /* [ nat : nat : nat : nat : nat : nat : nat : nat : nat : nat : nat : nat : nat
            : nat : nat : nat : nat
            : pair nat nat nat nat nat nat nat nat nat nat nat nat nat nat nat nat nat ] */ ;
         DIG 16
         /* [ nat : nat : nat : nat : nat : nat : nat : nat : nat : nat : nat : nat : nat
            : nat : nat : nat : nat
            : pair nat nat nat nat nat nat nat nat nat nat nat nat nat nat nat nat nat ] */ ;
         PAPAPAPAPAPAPAPAPAPAPAPAPAPAPAPAIR ;
         ASSERT_CMPEQ ;
         UNIT
         /* [ unit ] */ ;
         NIL operation
         /* [ list operation : unit ] */ ;
         PAIR
         /* [ pair (list operation) unit ] */ } }
