
./octez-client --protocol PtMumbaiP9THCizHVy23Zu3xCjTpNLWirfXY3kitfyd2nkvTbCj --mode mockup --no-base-dir-warnings typecheck script tests_python/contracts_016/opcodes/ticket_store.tz --details
Well typed
Gas remaining: 1039997.074 units remaining
{ parameter (ticket nat) ;
  storage (option (ticket nat)) ;
  code { CAR
         /* [ ticket nat ] */ ;
         SOME
         /* [ option (ticket nat) ] */ ;
         NIL operation
         /* [ list operation : option (ticket nat) ] */ ;
         PAIR
         /* [ pair (list operation) (option (ticket nat)) ] */ } }
