
./octez-client --protocol PtMumbaiP9THCizHVy23Zu3xCjTpNLWirfXY3kitfyd2nkvTbCj --mode mockup --no-base-dir-warnings typecheck script tests_python/contracts_016/opcodes/view_op_nonexistent_addr.tz --details
Well typed
Gas remaining: 1039989.559 units remaining
{ parameter (pair nat address) ;
  storage bool ;
  code { DROP
         /* [] */ ;
         PUSH address "tz1SuakBpFdG9b4twyfrSMqZzruxhpMeSrE5"
         /* [ address ] */ ;
         PUSH nat 0
         /* [ nat : address ] */ ;
         VIEW "test" bool
         /* [ option bool ] */ ;
         IF_SOME
           { DROP /* [] */ ; PUSH bool True /* [ bool ] */ }
           { PUSH bool False /* [ bool ] */ } ;
         NIL operation
         /* [ list operation : bool ] */ ;
         PAIR
         /* [ pair (list operation) bool ] */ } }
