
./octez-client --protocol PtMumbaiP9THCizHVy23Zu3xCjTpNLWirfXY3kitfyd2nkvTbCj --mode mockup --no-base-dir-warnings typecheck script tests_python/contracts_016/opcodes/set_id.tz --details
Well typed
Gas remaining: 1039997.680 units remaining
{ parameter (set string) ;
  storage (set string) ;
  code { CAR
         /* [ set string ] */ ;
         NIL operation
         /* [ list operation : set string ] */ ;
         PAIR
         /* [ pair (list operation) (set string) ] */ } }
