
./octez-client --protocol PtMumbaiP9THCizHVy23Zu3xCjTpNLWirfXY3kitfyd2nkvTbCj --mode mockup --no-base-dir-warnings typecheck script tests_python/contracts_016/opcodes/xor_bytes.tz --details
Well typed
Gas remaining: 1039978.916 units remaining
{ parameter unit ;
  storage unit ;
  code { DROP
         /* [] */ ;
         PUSH bytes 0x05
         /* [ bytes ] */ ;
         PUSH bytes 0x06
         /* [ bytes : bytes ] */ ;
         XOR
         /* [ bytes ] */ ;
         PUSH bytes 0x03
         /* [ bytes : bytes ] */ ;
         ASSERT_CMPEQ ;
         PUSH bytes 0x0005
         /* [ bytes ] */ ;
         PUSH bytes 0x0106
         /* [ bytes : bytes ] */ ;
         XOR
         /* [ bytes ] */ ;
         PUSH bytes 0x0103
         /* [ bytes : bytes ] */ ;
         ASSERT_CMPEQ ;
         PUSH bytes 0x05
         /* [ bytes ] */ ;
         PUSH bytes 0x0106
         /* [ bytes : bytes ] */ ;
         XOR
         /* [ bytes ] */ ;
         PUSH bytes 0x0103
         /* [ bytes : bytes ] */ ;
         ASSERT_CMPEQ ;
         UNIT
         /* [ unit ] */ ;
         NIL @noop operation
         /* [ list operation : unit ] */ ;
         PAIR
         /* [ pair (list operation) unit ] */ } }
