
./octez-client --protocol PtMumbaiP9THCizHVy23Zu3xCjTpNLWirfXY3kitfyd2nkvTbCj --mode mockup --no-base-dir-warnings typecheck script tests_python/contracts_016/attic/spawn_identities.tz --details
Well typed
Gas remaining: 1039976.440 units remaining
{ parameter nat ;
  storage (list address) ;
  code { /* [ pair string string ] */
         DUP
         /* [ list operation : string ] */ ;
         CAR
         /* [ nat : pair nat (list address) ] */ ;
         DIP { CDR /* [ list address ] */ ; NIL operation /* [ list operation : list address ] */ }
         /* [ pair (list operation) string ] */ ;
         PUSH bool True
         /* [ bool : nat : list operation : list address ] */ ;
         LOOP { DUP
                /* [ nat : nat : list operation : list address ] */ ;
                PUSH nat 0
                /* [ nat : nat : nat : list operation : list address ] */ ;
                CMPEQ ;
                IF { PUSH bool False /* [ bool : nat : list operation : list address ] */ }
                   { PUSH nat 1
                     /* [ nat : nat : list operation : list address ] */ ;
                     SWAP
                     /* [ nat : nat : list operation : list address ] */ ;
                     SUB
                     /* [ int : list operation : list address ] */ ;
                     ABS
                     /* [ nat : list operation : list address ] */ ;
                     PUSH string "init"
                     /* [ string : nat : list operation : list address ] */ ;
                     PUSH mutez 5000000
                     /* [ mutez : string : nat : list operation : list address ] */ ;
                     NONE key_hash
                     /* [ option key_hash : mutez : string : nat : list operation : list address ] */ ;
                     CREATE_CONTRACT
                       { parameter string ;
                         storage string ;
                         code { CAR ; NIL operation ; PAIR } }
                     /* [ operation : address : nat : list operation : list address ] */ ;
                     SWAP
                     /* [ address : operation : nat : list operation : list address ] */ ;
                     DIP { SWAP
                           /* [ nat : operation : list operation : list address ] */ ;
                           DIP { CONS /* [ list operation : list address ] */ }
                           /* [ nat : list operation : list address ] */ }
                     /* [ address : nat : list operation : list address ] */ ;
                     SWAP
                     /* [ nat : address : list operation : list address ] */ ;
                     DIP { SWAP
                           /* [ list operation : address : list address ] */ ;
                           DIP { CONS /* [ list address ] */ }
                           /* [ list operation : list address ] */ }
                     /* [ nat : list operation : list address ] */ ;
                     PUSH bool True
                     /* [ bool : nat : list operation : list address ] */ } }
         /* [ nat : list operation : list address ] */ ;
         DROP
         /* [ list operation : list address ] */ ;
         PAIR
         /* [ pair (list operation) (list address) ] */ } }
