
./octez-client --protocol PtMumbaiP9THCizHVy23Zu3xCjTpNLWirfXY3kitfyd2nkvTbCj --mode mockup --no-base-dir-warnings typecheck script tests_python/contracts_016/opcodes/concat_hello.tz --details
Well typed
Gas remaining: 1039995.899 units remaining
{ parameter (list string) ;
  storage (list string) ;
  code { CAR
         /* [ list string ] */ ;
         MAP { PUSH @hello string "Hello " /* [ string : string ] */ ; CONCAT /* [ string ] */ }
         /* [ list string ] */ ;
         NIL operation
         /* [ list operation : list string ] */ ;
         PAIR
         /* [ pair (list operation) (list string) ] */ } }
