
./octez-client --protocol PtMumbaiP9THCizHVy23Zu3xCjTpNLWirfXY3kitfyd2nkvTbCj --mode mockup --no-base-dir-warnings typecheck script tests_python/contracts_016/mini_scenarios/big_map_store.tz --details
Well typed
Gas remaining: 1039996.856 units remaining
{ storage (big_map nat nat) ;
  parameter unit ;
  code { DROP
         /* [] */ ;
         EMPTY_BIG_MAP nat nat
         /* [ big_map nat nat ] */ ;
         NIL operation
         /* [ list operation : big_map nat nat ] */ ;
         PAIR
         /* [ pair (list operation) (big_map nat nat) ] */ } }
