
./octez-client --protocol PtMumbaiP9THCizHVy23Zu3xCjTpNLWirfXY3kitfyd2nkvTbCj --mode mockup --no-base-dir-warnings typecheck script tests_python/contracts_016/macros/big_map_mem.tz --details
Well typed
Gas remaining: 1039984.191 units remaining
{ parameter (pair int bool) ;
  storage (pair (big_map int unit) unit) ;
  code { DUP
         /* [ pair (pair int bool) (big_map int unit) unit
            : pair (pair int bool) (big_map int unit) unit ] */ ;
         DUP
         /* [ pair (pair int bool) (big_map int unit) unit
            : pair (pair int bool) (big_map int unit) unit
            : pair (pair int bool) (big_map int unit) unit ] */ ;
         CADR ;
         DIP { CAAR ;
               DIP { CDAR ; DUP /* [ big_map int unit : big_map int unit ] */ }
               /* [ int : big_map int unit : big_map int unit ] */ ;
               MEM
               /* [ bool : big_map int unit ] */ }
         /* [ bool : bool : big_map int unit ] */ ;
         ASSERT_CMPEQ ;
         UNIT
         /* [ unit : big_map int unit ] */ ;
         SWAP
         /* [ big_map int unit : unit ] */ ;
         PAIR
         /* [ pair (big_map int unit) unit ] */ ;
         NIL operation
         /* [ list operation : pair (big_map int unit) unit ] */ ;
         PAIR
         /* [ pair (list operation) (big_map int unit) unit ] */ } }
