
./octez-client --protocol ProtoALphaALphaALphaALphaALphaALphaALphaALphaDdp3zK --mode mockup --no-base-dir-warnings run script ./tests_python/contracts_alpha/opcodes/contract.tz on storage Unit and input '"tz1cxcwwnzENRdhe2Kb8ZdTrdNy4bFNyScx5"' --level 1 --trace-stack
storage
  Unit
emitted operations
  
big_map diff
  
trace
  - location: 7 (just consumed gas: 12.110)
    [ (Pair "tz1cxcwwnzENRdhe2Kb8ZdTrdNy4bFNyScx5" Unit) ]
  - location: 7 (just consumed gas: 0.010)
    [ "tz1cxcwwnzENRdhe2Kb8ZdTrdNy4bFNyScx5" ]
  - location: 8 (just consumed gas: 0.310)
    [ (Some "tz1cxcwwnzENRdhe2Kb8ZdTrdNy4bFNyScx5") ]
  - location: 11 (just consumed gas: 0)
    [ "tz1cxcwwnzENRdhe2Kb8ZdTrdNy4bFNyScx5" ]
  - location: 11 (just consumed gas: 0.015)
    [ "tz1cxcwwnzENRdhe2Kb8ZdTrdNy4bFNyScx5" ]
  - location: 17 (just consumed gas: 0.010)
    [  ]
  - location: 18 (just consumed gas: 0.010)
    [ Unit ]
  - location: 19 (just consumed gas: 0.010)
    [ {}
      Unit ]
  - location: 21 (just consumed gas: 0.010)
    [ (Pair {} Unit) ]

