
./octez-client --protocol PtMumbaiP9THCizHVy23Zu3xCjTpNLWirfXY3kitfyd2nkvTbCj --mode mockup --no-base-dir-warnings run script ./tests_python/contracts_016/opcodes/reverse_loop.tz on storage '{""}' and input '{}' --level 1 --trace-stack
storage
  {}
emitted operations
  
big_map diff
  
trace
  - location: 9 (just consumed gas: 13.786)
    [ (Pair {} { "" }) ]
  - location: 9 (just consumed gas: 0.010)
    [ {} ]
  - location: 10 (just consumed gas: 0.010)
    [ {}
      {} ]
  - location: 12 (just consumed gas: 0.010)
    [ {}
      {} ]
  - location: 13 (just consumed gas: 0.010)
    [ True
      {}
      {} ]
  - location: 33 (just consumed gas: 0)
    [ {}
      {} ]
  - location: 18 (just consumed gas: 0)
    [ {} ]
  - location: 28 (just consumed gas: 0.010)
    [ {}
      {} ]
  - location: 30 (just consumed gas: 0.010)
    [ False
      {}
      {} ]
  - location: 18 (just consumed gas: 0.015)
    [ False
      {}
      {} ]
  - location: 33 (just consumed gas: 0.015)
    [ {}
      {} ]
  - location: 33 (just consumed gas: 0.010)
    [ {} ]
  - location: 34 (just consumed gas: 0.010)
    [ {}
      {} ]
  - location: 36 (just consumed gas: 0.010)
    [ (Pair {} {}) ]

