
./octez-client --protocol PtMumbaiP9THCizHVy23Zu3xCjTpNLWirfXY3kitfyd2nkvTbCj --mode mockup --no-base-dir-warnings run script ./tests_python/contracts_016/opcodes/map_mem_string.tz on storage '(Pair { Elt "bar" 4 ; Elt "foo" 11 } None)' and input '"baz"' --level 1 --trace-stack
storage
  (Pair { Elt "bar" 4 ; Elt "foo" 11 } (Some False))
emitted operations
  
big_map diff
  
trace
  - location: 12 (just consumed gas: 10.181)
    [ (Pair "baz" { Elt "bar" 4 ; Elt "foo" 11 } None) ]
  - location: 12 (just consumed gas: 0.010)
    [ "baz"
      (Pair { Elt "bar" 4 ; Elt "foo" 11 } None) ]
  - location: 13 (just consumed gas: 0)
    [ (Pair { Elt "bar" 4 ; Elt "foo" 11 } None) ]
  - location: 15 (just consumed gas: 0.010)
    [ { Elt "bar" 4 ; Elt "foo" 11 } ]
  - location: 16 (just consumed gas: 0.010)
    [ { Elt "bar" 4 ; Elt "foo" 11 }
      { Elt "bar" 4 ; Elt "foo" 11 } ]
  - location: 13 (just consumed gas: 0.025)
    [ "baz"
      { Elt "bar" 4 ; Elt "foo" 11 }
      { Elt "bar" 4 ; Elt "foo" 11 } ]
  - location: 17 (just consumed gas: 0.089)
    [ False
      { Elt "bar" 4 ; Elt "foo" 11 } ]
  - location: 18 (just consumed gas: 0.010)
    [ (Some False)
      { Elt "bar" 4 ; Elt "foo" 11 } ]
  - location: 19 (just consumed gas: 0.010)
    [ { Elt "bar" 4 ; Elt "foo" 11 }
      (Some False) ]
  - location: 20 (just consumed gas: 0.010)
    [ (Pair { Elt "bar" 4 ; Elt "foo" 11 } (Some False)) ]
  - location: 21 (just consumed gas: 0.010)
    [ {}
      (Pair { Elt "bar" 4 ; Elt "foo" 11 } (Some False)) ]
  - location: 23 (just consumed gas: 0.010)
    [ (Pair {} { Elt "bar" 4 ; Elt "foo" 11 } (Some False)) ]

