
./octez-client --protocol PtMumbaiP9THCizHVy23Zu3xCjTpNLWirfXY3kitfyd2nkvTbCj --mode mockup --no-base-dir-warnings run script ./tests_python/contracts_016/opcodes/not.tz on storage None and input False --level 1 --trace-stack
storage
  (Some True)
emitted operations
  
big_map diff
  
trace
  - location: 8 (just consumed gas: 5.053)
    [ (Pair False None) ]
  - location: 8 (just consumed gas: 0.010)
    [ False ]
  - location: 9 (just consumed gas: 0.010)
    [ True ]
  - location: 10 (just consumed gas: 0.010)
    [ (Some True) ]
  - location: 11 (just consumed gas: 0.010)
    [ {}
      (Some True) ]
  - location: 13 (just consumed gas: 0.010)
    [ (Pair {} (Some True)) ]

