
./octez-client --protocol PtMumbaiP9THCizHVy23Zu3xCjTpNLWirfXY3kitfyd2nkvTbCj --mode mockup --no-base-dir-warnings run script ./tests_python/contracts_016/opcodes/dipn.tz on storage 0 and input '(Pair (Pair (Pair (Pair 1 2) 3) 4) 5)' --level 1 --trace-stack
storage
  6
emitted operations
  
big_map diff
  
trace
  - location: 15 (just consumed gas: 13.205)
    [ (Pair (Pair (Pair (Pair (Pair 1 2) 3) 4) 5) 0) ]
  - location: 15 (just consumed gas: 0.010)
    [ (Pair (Pair (Pair (Pair 1 2) 3) 4) 5) ]
  - location: 16 (just consumed gas: 0.010)
    [ (Pair (Pair (Pair 1 2) 3) 4)
      5 ]
  - location: 17 (just consumed gas: 0.010)
    [ (Pair (Pair 1 2) 3)
      4
      5 ]
  - location: 18 (just consumed gas: 0.010)
    [ (Pair 1 2)
      3
      4
      5 ]
  - location: 19 (just consumed gas: 0.010)
    [ 1
      2
      3
      4
      5 ]
  - location: 20 (just consumed gas: 0)
    [  ]
  - location: 23 (just consumed gas: 0.010)
    [ 6 ]
  - location: 20 (just consumed gas: 0.025)
    [ 5
      6 ]
  - location: 20 (just consumed gas: 0.010)
    [ 4
      5
      6 ]
  - location: 20 (just consumed gas: 0.010)
    [ 3
      4
      5
      6 ]
  - location: 20 (just consumed gas: 0.010)
    [ 2
      3
      4
      5
      6 ]
  - location: 20 (just consumed gas: 0.010)
    [ 1
      2
      3
      4
      5
      6 ]
  - location: 20 (just consumed gas: 0)
    [ 1
      2
      3
      4
      5
      6 ]
  - location: 26 (just consumed gas: 0.010)
    [ 2
      3
      4
      5
      6 ]
  - location: 27 (just consumed gas: 0.010)
    [ 3
      4
      5
      6 ]
  - location: 28 (just consumed gas: 0.010)
    [ 4
      5
      6 ]
  - location: 29 (just consumed gas: 0.010)
    [ 5
      6 ]
  - location: 30 (just consumed gas: 0.010)
    [ 6 ]
  - location: 31 (just consumed gas: 0.010)
    [ {}
      6 ]
  - location: 33 (just consumed gas: 0.010)
    [ (Pair {} 6) ]

