
./octez-client --protocol PtMumbaiP9THCizHVy23Zu3xCjTpNLWirfXY3kitfyd2nkvTbCj --mode mockup --no-base-dir-warnings run script ./tests_python/contracts_016/opcodes/slice_bytes.tz on storage 'Some 0xaabbcc' and input 'Pair 2 1' --level 1 --trace-stack
storage
  (Some 0xcc)
emitted operations
  
big_map diff
  
trace
  - location: 10 (just consumed gas: 9.298)
    [ (Pair (Pair 2 1) (Some 0xaabbcc)) ]
  - location: 10 (just consumed gas: 0.010)
    [ (Pair 2 1)
      (Some 0xaabbcc) ]
  - location: 11 (just consumed gas: 0.010)
    [ (Some 0xaabbcc)
      (Pair 2 1) ]
  - location: 13 (just consumed gas: 0)
    [ 0xaabbcc
      (Pair 2 1) ]
  - location: 19 (just consumed gas: 0.010)
    [ (Pair 2 1)
      0xaabbcc ]
  - location: 20 (just consumed gas: 0.010)
    [ 2
      1
      0xaabbcc ]
  - location: 21 (just consumed gas: 0.026)
    [ (Some 0xcc) ]
  - location: 13 (just consumed gas: 0.015)
    [ (Some 0xcc) ]
  - location: 22 (just consumed gas: 0.010)
    [ {}
      (Some 0xcc) ]
  - location: 24 (just consumed gas: 0.010)
    [ (Pair {} (Some 0xcc)) ]

