
./octez-client --protocol PtMumbaiP9THCizHVy23Zu3xCjTpNLWirfXY3kitfyd2nkvTbCj --mode mockup --no-base-dir-warnings run script ./tests_python/contracts_016/opcodes/xor.tz on storage None and input 'Left (Pair False False)' --level 1 --trace-stack
storage
  (Some (Left False))
emitted operations
  
big_map diff
  
trace
  - location: 16 (just consumed gas: 11.026)
    [ (Pair (Left (Pair False False)) None) ]
  - location: 16 (just consumed gas: 0.010)
    [ (Left (Pair False False)) ]
  - location: 17 (just consumed gas: 0)
    [ (Pair False False) ]
  - location: 19 (just consumed gas: 0.010)
    [ False
      False ]
  - location: 20 (just consumed gas: 0.015)
    [ False ]
  - location: 21 (just consumed gas: 0.010)
    [ (Left False) ]
  - location: 17 (just consumed gas: 0.015)
    [ (Left False) ]
  - location: 28 (just consumed gas: 0.010)
    [ (Some (Left False)) ]
  - location: 29 (just consumed gas: 0.010)
    [ {}
      (Some (Left False)) ]
  - location: 31 (just consumed gas: 0.010)
    [ (Pair {} (Some (Left False))) ]

