
./octez-client --protocol PtMumbaiP9THCizHVy23Zu3xCjTpNLWirfXY3kitfyd2nkvTbCj --mode mockup --no-base-dir-warnings run script ./tests_python/contracts_016/opcodes/slice.tz on storage 'Some "Foo"' and input 'Pair 10 5' --level 1 --trace-stack
storage
  None
emitted operations
  
big_map diff
  
trace
  - location: 10 (just consumed gas: 9.342)
    [ (Pair (Pair 10 5) (Some "Foo")) ]
  - location: 10 (just consumed gas: 0.010)
    [ (Pair 10 5)
      (Some "Foo") ]
  - location: 11 (just consumed gas: 0.010)
    [ (Some "Foo")
      (Pair 10 5) ]
  - location: 13 (just consumed gas: 0)
    [ "Foo"
      (Pair 10 5) ]
  - location: 19 (just consumed gas: 0.010)
    [ (Pair 10 5)
      "Foo" ]
  - location: 20 (just consumed gas: 0.010)
    [ 10
      5
      "Foo" ]
  - location: 21 (just consumed gas: 0.026)
    [ None ]
  - location: 13 (just consumed gas: 0.015)
    [ None ]
  - location: 22 (just consumed gas: 0.010)
    [ {}
      None ]
  - location: 24 (just consumed gas: 0.010)
    [ (Pair {} None) ]

