
./octez-client --protocol PtMumbaiP9THCizHVy23Zu3xCjTpNLWirfXY3kitfyd2nkvTbCj --mode mockup --no-base-dir-warnings run script ./tests_python/contracts_016/opcodes/shifts.tz on storage None and input '(Right (Pair 15 2))' --level 1 --trace-stack
storage
  (Some 3)
emitted operations
  
big_map diff
  
trace
  - location: 14 (just consumed gas: 8.811)
    [ (Pair (Right (Pair 15 2)) None) ]
  - location: 14 (just consumed gas: 0.010)
    [ (Right (Pair 15 2)) ]
  - location: 15 (just consumed gas: 0)
    [ (Pair 15 2) ]
  - location: 20 (just consumed gas: 0.010)
    [ 15
      2 ]
  - location: 21 (just consumed gas: 0)
    [ 3 ]
  - location: 15 (just consumed gas: 0.015)
    [ 3 ]
  - location: 22 (just consumed gas: 0.010)
    [ (Some 3) ]
  - location: 23 (just consumed gas: 0.010)
    [ {}
      (Some 3) ]
  - location: 25 (just consumed gas: 0.010)
    [ (Pair {} (Some 3)) ]

