
./octez-client --protocol PtMumbaiP9THCizHVy23Zu3xCjTpNLWirfXY3kitfyd2nkvTbCj --mode mockup --no-base-dir-warnings run script ./tests_python/contracts_016/opcodes/set_member.tz on storage '(Pair {} None)' and input '"Hi"' --level 1 --trace-stack
storage
  (Pair {} (Some False))
emitted operations
  
big_map diff
  
trace
  - location: 11 (just consumed gas: 13.724)
    [ (Pair "Hi" {} None) ]
  - location: 11 (just consumed gas: 0.010)
    [ (Pair "Hi" {} None)
      (Pair "Hi" {} None) ]
  - location: 12 (just consumed gas: 0.010)
    [ (Pair "Hi" {} None)
      (Pair "Hi" {} None)
      (Pair "Hi" {} None) ]
  - location: 13 (just consumed gas: 0.010)
    [ "Hi"
      (Pair "Hi" {} None)
      (Pair "Hi" {} None) ]
  - location: 14 (just consumed gas: 0)
    [ (Pair "Hi" {} None)
      (Pair "Hi" {} None) ]
  - location: 17 (just consumed gas: 0.010)
    [ (Pair {} None)
      (Pair "Hi" {} None) ]
  - location: 18 (just consumed gas: 0.010)
    [ {}
      (Pair "Hi" {} None) ]
  - location: 14 (just consumed gas: 0.025)
    [ "Hi"
      {}
      (Pair "Hi" {} None) ]
  - location: 19 (just consumed gas: 0.117)
    [ False
      (Pair "Hi" {} None) ]
  - location: 20 (just consumed gas: 0.010)
    [ (Some False)
      (Pair "Hi" {} None) ]
  - location: 21 (just consumed gas: 0)
    [ (Pair "Hi" {} None) ]
  - location: 24 (just consumed gas: 0.010)
    [ (Pair {} None) ]
  - location: 25 (just consumed gas: 0.010)
    [ {} ]
  - location: 21 (just consumed gas: 0.025)
    [ (Some False)
      {} ]
  - location: 26 (just consumed gas: 0.010)
    [ {}
      (Some False) ]
  - location: 27 (just consumed gas: 0.010)
    [ (Pair {} (Some False)) ]
  - location: 28 (just consumed gas: 0.010)
    [ {}
      (Pair {} (Some False)) ]
  - location: 30 (just consumed gas: 0.010)
    [ (Pair {} {} (Some False)) ]

