
./octez-client --protocol PtMumbaiP9THCizHVy23Zu3xCjTpNLWirfXY3kitfyd2nkvTbCj --mode mockup --no-base-dir-warnings run script ./tests_python/contracts_016/opcodes/list_id_map.tz on storage '{""}' and input '{}' --level 1 --trace-stack
storage
  {}
emitted operations
  
big_map diff
  
trace
  - location: 9 (just consumed gas: 5.075)
    [ (Pair {} { "" }) ]
  - location: 9 (just consumed gas: 0.010)
    [ {} ]
  - location: 10 (just consumed gas: 0)
    [ {} ]
  - location: 12 (just consumed gas: 0.010)
    [ {}
      {} ]
  - location: 14 (just consumed gas: 0.010)
    [ (Pair {} {}) ]

