
./octez-client --protocol PtMumbaiP9THCizHVy23Zu3xCjTpNLWirfXY3kitfyd2nkvTbCj --mode mockup --no-base-dir-warnings run script ./tests_python/contracts_016/opcodes/abs.tz on storage Unit and input 0 --level 1 --trace-stack
storage
  Unit
emitted operations
  
big_map diff
  
trace
  - location: 7 (just consumed gas: 10.211)
    [ (Pair 0 Unit) ]
  - location: 7 (just consumed gas: 0.010)
    [ 0 ]
  - location: 8 (just consumed gas: 0.010)
    [ 0
      0 ]
  - location: 9 (just consumed gas: 0.025)
    [ 0
      0 ]
  - location: 10 (just consumed gas: 0.020)
    [ 0
      0 ]
  - location: 11 (just consumed gas: 0.035)
    [ 0 ]
  - location: 13 (just consumed gas: 0.010)
    [ True ]
  - location: 14 (just consumed gas: 0)
    [  ]
  - location: 14 (just consumed gas: 0.015)
    [  ]
  - location: 20 (just consumed gas: 0.010)
    [ Unit ]
  - location: 21 (just consumed gas: 0.010)
    [ {}
      Unit ]
  - location: 23 (just consumed gas: 0.010)
    [ (Pair {} Unit) ]

