
./octez-client --protocol PtMumbaiP9THCizHVy23Zu3xCjTpNLWirfXY3kitfyd2nkvTbCj --mode mockup --no-base-dir-warnings run script ./tests_python/contracts_016/opcodes/shifts.tz on storage None and input '(Right (Pair 8 1))' --level 1 --trace-stack
storage
  (Some 4)
emitted operations
  
big_map diff
  
trace
  - location: 14 (just consumed gas: 8.811)
    [ (Pair (Right (Pair 8 1)) None) ]
  - location: 14 (just consumed gas: 0.010)
    [ (Right (Pair 8 1)) ]
  - location: 15 (just consumed gas: 0)
    [ (Pair 8 1) ]
  - location: 20 (just consumed gas: 0.010)
    [ 8
      1 ]
  - location: 21 (just consumed gas: 0)
    [ 4 ]
  - location: 15 (just consumed gas: 0.015)
    [ 4 ]
  - location: 22 (just consumed gas: 0.010)
    [ (Some 4) ]
  - location: 23 (just consumed gas: 0.010)
    [ {}
      (Some 4) ]
  - location: 25 (just consumed gas: 0.010)
    [ (Pair {} (Some 4)) ]

