
./octez-client --protocol PtMumbaiP9THCizHVy23Zu3xCjTpNLWirfXY3kitfyd2nkvTbCj --mode mockup --no-base-dir-warnings run script ./tests_python/contracts_016/opcodes/list_id.tz on storage '{""}' and input '{ "1" ; "2" ; "3" }' --level 1 --trace-stack
storage
  { "1" ; "2" ; "3" }
emitted operations
  
big_map diff
  
trace
  - location: 9 (just consumed gas: 4.561)
    [ (Pair { "1" ; "2" ; "3" } { "" }) ]
  - location: 9 (just consumed gas: 0.010)
    [ { "1" ; "2" ; "3" } ]
  - location: 10 (just consumed gas: 0.010)
    [ {}
      { "1" ; "2" ; "3" } ]
  - location: 12 (just consumed gas: 0.010)
    [ (Pair {} { "1" ; "2" ; "3" }) ]

