
./octez-client --protocol PtMumbaiP9THCizHVy23Zu3xCjTpNLWirfXY3kitfyd2nkvTbCj --mode mockup --no-base-dir-warnings run script ./tests_python/contracts_016/opcodes/if.tz on storage None and input True --level 1 --trace-stack
storage
  (Some True)
emitted operations
  
big_map diff
  
trace
  - location: 8 (just consumed gas: 7.320)
    [ (Pair True None) ]
  - location: 8 (just consumed gas: 0.010)
    [ True ]
  - location: 9 (just consumed gas: 0)
    [  ]
  - location: 11 (just consumed gas: 0.010)
    [ True ]
  - location: 9 (just consumed gas: 0.015)
    [ True ]
  - location: 18 (just consumed gas: 0.010)
    [ (Some True) ]
  - location: 19 (just consumed gas: 0.010)
    [ {}
      (Some True) ]
  - location: 21 (just consumed gas: 0.010)
    [ (Pair {} (Some True)) ]

