
./octez-client --protocol PtMumbaiP9THCizHVy23Zu3xCjTpNLWirfXY3kitfyd2nkvTbCj --mode mockup --no-base-dir-warnings run script ./tests_python/contracts_016/opcodes/neg.tz on storage 0 and input '(Left 0)' --level 1 --trace-stack
storage
  0
emitted operations
  
big_map diff
  
trace
  - location: 9 (just consumed gas: 6.169)
    [ (Pair (Left 0) 0) ]
  - location: 9 (just consumed gas: 0.010)
    [ (Left 0) ]
  - location: 10 (just consumed gas: 0)
    [ 0 ]
  - location: 12 (just consumed gas: 0.025)
    [ 0 ]
  - location: 10 (just consumed gas: 0.015)
    [ 0 ]
  - location: 15 (just consumed gas: 0.010)
    [ {}
      0 ]
  - location: 17 (just consumed gas: 0.010)
    [ (Pair {} 0) ]

