
./octez-client --protocol PtMumbaiP9THCizHVy23Zu3xCjTpNLWirfXY3kitfyd2nkvTbCj --mode mockup --no-base-dir-warnings run script ./tests_python/contracts_016/opcodes/list_size.tz on storage 111 and input '{}' --level 1 --trace-stack
storage
  0
emitted operations
  
big_map diff
  
trace
  - location: 8 (just consumed gas: 4.395)
    [ (Pair {} 111) ]
  - location: 8 (just consumed gas: 0.010)
    [ {} ]
  - location: 9 (just consumed gas: 0.010)
    [ 0 ]
  - location: 10 (just consumed gas: 0.010)
    [ {}
      0 ]
  - location: 12 (just consumed gas: 0.010)
    [ (Pair {} 0) ]

