
./octez-client --protocol PtMumbaiP9THCizHVy23Zu3xCjTpNLWirfXY3kitfyd2nkvTbCj --mode mockup --no-base-dir-warnings run script ./tests_python/contracts_016/opcodes/pair_id.tz on storage None and input '(Pair False True)' --level 1 --trace-stack
storage
  (Some (Pair False True))
emitted operations
  
big_map diff
  
trace
  - location: 12 (just consumed gas: 5.501)
    [ (Pair (Pair False True) None) ]
  - location: 12 (just consumed gas: 0.010)
    [ (Pair False True) ]
  - location: 13 (just consumed gas: 0.010)
    [ (Some (Pair False True)) ]
  - location: 14 (just consumed gas: 0.010)
    [ {}
      (Some (Pair False True)) ]
  - location: 16 (just consumed gas: 0.010)
    [ (Pair {} (Some (Pair False True))) ]

