
./octez-client --protocol PtMumbaiP9THCizHVy23Zu3xCjTpNLWirfXY3kitfyd2nkvTbCj --mode mockup --no-base-dir-warnings run script ./tests_python/contracts_016/opcodes/ediv_mutez.tz on storage '(Left None)' and input '(Pair 10 (Right 3))' --level 1 --trace-stack
storage
  (Right (Some (Pair 3 1)))
emitted operations
  
big_map diff
  
trace
  - location: 19 (just consumed gas: 14.009)
    [ (Pair (Pair 10 (Right 3)) (Left None)) ]
  - location: 19 (just consumed gas: 0.010)
    [ (Pair 10 (Right 3)) ]
  - location: 20 (just consumed gas: 0.010)
    [ 10
      (Right 3) ]
  - location: 21 (just consumed gas: 0.010)
    [ (Right 3)
      10 ]
  - location: 22 (just consumed gas: 0)
    [ 3
      10 ]
  - location: 32 (just consumed gas: 0.010)
    [ 10
      3 ]
  - location: 33 (just consumed gas: 0.070)
    [ (Some (Pair 3 1)) ]
  - location: 34 (just consumed gas: 0.010)
    [ (Right (Some (Pair 3 1))) ]
  - location: 22 (just consumed gas: 0.015)
    [ (Right (Some (Pair 3 1))) ]
  - location: 39 (just consumed gas: 0.010)
    [ {}
      (Right (Some (Pair 3 1))) ]
  - location: 41 (just consumed gas: 0.010)
    [ (Pair {} (Right (Some (Pair 3 1)))) ]

