
./octez-client --protocol PtMumbaiP9THCizHVy23Zu3xCjTpNLWirfXY3kitfyd2nkvTbCj --mode mockup --no-base-dir-warnings run script ./tests_python/contracts_016/opcodes/map_mem_nat.tz on storage '(Pair { Elt 1 4 ; Elt 2 11 } None)' and input 2 --level 1 --trace-stack
storage
  (Pair { Elt 1 4 ; Elt 2 11 } (Some True))
emitted operations
  
big_map diff
  
trace
  - location: 12 (just consumed gas: 10.031)
    [ (Pair 2 { Elt 1 4 ; Elt 2 11 } None) ]
  - location: 12 (just consumed gas: 0.010)
    [ 2
      (Pair { Elt 1 4 ; Elt 2 11 } None) ]
  - location: 13 (just consumed gas: 0)
    [ (Pair { Elt 1 4 ; Elt 2 11 } None) ]
  - location: 15 (just consumed gas: 0.010)
    [ { Elt 1 4 ; Elt 2 11 } ]
  - location: 16 (just consumed gas: 0.010)
    [ { Elt 1 4 ; Elt 2 11 }
      { Elt 1 4 ; Elt 2 11 } ]
  - location: 13 (just consumed gas: 0.025)
    [ 2
      { Elt 1 4 ; Elt 2 11 }
      { Elt 1 4 ; Elt 2 11 } ]
  - location: 17 (just consumed gas: 0.080)
    [ True
      { Elt 1 4 ; Elt 2 11 } ]
  - location: 18 (just consumed gas: 0.010)
    [ (Some True)
      { Elt 1 4 ; Elt 2 11 } ]
  - location: 19 (just consumed gas: 0.010)
    [ { Elt 1 4 ; Elt 2 11 }
      (Some True) ]
  - location: 20 (just consumed gas: 0.010)
    [ (Pair { Elt 1 4 ; Elt 2 11 } (Some True)) ]
  - location: 21 (just consumed gas: 0.010)
    [ {}
      (Pair { Elt 1 4 ; Elt 2 11 } (Some True)) ]
  - location: 23 (just consumed gas: 0.010)
    [ (Pair {} { Elt 1 4 ; Elt 2 11 } (Some True)) ]

