
./octez-client --protocol PtMumbaiP9THCizHVy23Zu3xCjTpNLWirfXY3kitfyd2nkvTbCj --mode mockup --no-base-dir-warnings run script ./tests_python/contracts_016/opcodes/slice.tz on storage None and input 'Pair 0 0' --level 1 --trace-stack
storage
  None
emitted operations
  
big_map diff
  
trace
  - location: 10 (just consumed gas: 9.198)
    [ (Pair (Pair 0 0) None) ]
  - location: 10 (just consumed gas: 0.010)
    [ (Pair 0 0)
      None ]
  - location: 11 (just consumed gas: 0.010)
    [ None
      (Pair 0 0) ]
  - location: 13 (just consumed gas: 0)
    [ (Pair 0 0) ]
  - location: 15 (just consumed gas: 0.010)
    [  ]
  - location: 16 (just consumed gas: 0.010)
    [ None ]
  - location: 13 (just consumed gas: 0.015)
    [ None ]
  - location: 22 (just consumed gas: 0.010)
    [ {}
      None ]
  - location: 24 (just consumed gas: 0.010)
    [ (Pair {} None) ]

