
./octez-client --protocol PtMumbaiP9THCizHVy23Zu3xCjTpNLWirfXY3kitfyd2nkvTbCj --mode mockup --no-base-dir-warnings run script ./tests_python/contracts_016/opcodes/ret_int.tz on storage None and input Unit --level 1 --trace-stack
storage
  (Some 300)
emitted operations
  
big_map diff
  
trace
  - location: 8 (just consumed gas: 5.514)
    [ (Pair Unit None) ]
  - location: 8 (just consumed gas: 0.010)
    [  ]
  - location: 9 (just consumed gas: 0.010)
    [ 300 ]
  - location: 12 (just consumed gas: 0.010)
    [ (Some 300) ]
  - location: 13 (just consumed gas: 0.010)
    [ {}
      (Some 300) ]
  - location: 15 (just consumed gas: 0.010)
    [ (Pair {} (Some 300)) ]

