
./octez-client --mode mockup --wait none originate contract receive_tickets_in_big_map transferring 200 from bootstrap1 running michelson_test_scripts/mini_scenarios/receive_tickets_in_big_map.tz --init '{}' --burn-cap 1
Node is bootstrapped.
Estimated gas: 1413.313 units (will add 100 for safety)
Estimated storage: 340 bytes added (will add 20 for safety)
Operation successfully injected in the node.
Operation hash is '[OPERATION_HASH]'
NOT waiting for the operation to be included.
Use command
  octez-client wait for [OPERATION_HASH] to be included --confirmations 1 --branch [BLOCK_HASH]
and/or an external block explorer to make sure that it has been included.
This sequence of operations was run:
  Manager signed operations:
    From: [PUBLIC_KEY_HASH]
    Fee to the baker: ꜩ0.000435
    Expected counter: 1
    Gas limit: 1514
    Storage limit: 360 bytes
    Balance updates:
      [PUBLIC_KEY_HASH] ... -ꜩ0.000435
      payload fees(the block proposer) ....... +ꜩ0.000435
    Origination:
      From: [PUBLIC_KEY_HASH]
      Credit: ꜩ200
      Script:
        { parameter (big_map int (ticket string)) ;
          storage (big_map int (ticket string)) ;
          code { CAR ; NIL operation ; PAIR } }
        Initial storage: {}
        No delegate for this contract
        This origination was successfully applied
        Originated contracts:
          [CONTRACT_HASH]
        Storage size: 83 bytes
        Updated big_maps:
          New map(4) of type (big_map int (ticket string))
        Paid storage size diff: 83 bytes
        Consumed gas: 1413.313
        Balance updates:
          [PUBLIC_KEY_HASH] ... -ꜩ0.02075
          storage fees ........................... +ꜩ0.02075
          [PUBLIC_KEY_HASH] ... -ꜩ0.06425
          storage fees ........................... +ꜩ0.06425
          [PUBLIC_KEY_HASH] ... -ꜩ200
          [CONTRACT_HASH] ... +ꜩ200

New contract [CONTRACT_HASH] originated.
Contract memorized as receive_tickets_in_big_map.

./octez-client --mode mockup --wait none originate contract send_tickets_in_big_map transferring 200 from bootstrap1 running michelson_test_scripts/mini_scenarios/send_tickets_in_big_map_015.tz --init Unit --burn-cap 1
Node is bootstrapped.
Estimated gas: 1497.307 units (will add 100 for safety)
Estimated storage: 577 bytes added (will add 20 for safety)
Operation successfully injected in the node.
Operation hash is '[OPERATION_HASH]'
NOT waiting for the operation to be included.
Use command
  octez-client wait for [OPERATION_HASH] to be included --confirmations 1 --branch [BLOCK_HASH]
and/or an external block explorer to make sure that it has been included.
This sequence of operations was run:
  Manager signed operations:
    From: [PUBLIC_KEY_HASH]
    Fee to the baker: ꜩ0.00071
    Expected counter: 2
    Gas limit: 1598
    Storage limit: 597 bytes
    Balance updates:
      [PUBLIC_KEY_HASH] ... -ꜩ0.00071
      payload fees(the block proposer) ....... +ꜩ0.00071
    Origination:
      From: [PUBLIC_KEY_HASH]
      Credit: ꜩ200
      Script:
        { parameter address ;
          storage unit ;
          code { CAR ;
                 CONTRACT (big_map int (ticket string)) ;
                 IF_NONE
                   { PUSH string "Contract of type `big_map(ticket(string))` not found" ;
                     FAILWITH }
                   { EMPTY_BIG_MAP int (ticket string) ;
                     PUSH int 100 ;
                     SWAP ;
                     PAIR ;
                     LEFT (big_map int (ticket string)) ;
                     LOOP_LEFT
                       { UNPAIR ;
                         SWAP ;
                         DUP ;
                         DUG 2 ;
                         PUSH int 0 ;
                         COMPARE ;
                         LT ;
                         IF { PUSH int 1 ;
                              DUP 3 ;
                              SUB ;
                              SWAP ;
                              PUSH nat 1 ;
                              PUSH string "BLUE" ;
                              TICKET ;
                              ASSERT_SOME ;
                              DIG 3 ;
                              SWAP ;
                              SOME ;
                              SWAP ;
                              UPDATE ;
                              PAIR ;
                              LEFT (big_map int (ticket string)) }
                            { SWAP ; DROP ; RIGHT (pair (big_map int (ticket string)) int) } } ;
                     SWAP ;
                     PUSH mutez 0 ;
                     DIG 2 ;
                     TRANSFER_TOKENS ;
                     PUSH unit Unit ;
                     NIL operation ;
                     DIG 2 ;
                     CONS ;
                     PAIR } } }
        Initial storage: Unit
        No delegate for this contract
        This origination was successfully applied
        Originated contracts:
          [CONTRACT_HASH]
        Storage size: 320 bytes
        Paid storage size diff: 320 bytes
        Consumed gas: 1497.307
        Balance updates:
          [PUBLIC_KEY_HASH] ... -ꜩ0.08
          storage fees ........................... +ꜩ0.08
          [PUBLIC_KEY_HASH] ... -ꜩ0.06425
          storage fees ........................... +ꜩ0.06425
          [PUBLIC_KEY_HASH] ... -ꜩ200
          [CONTRACT_HASH] ... +ꜩ200

New contract [CONTRACT_HASH] originated.
Contract memorized as send_tickets_in_big_map.

./octez-client --mode mockup --wait none transfer 0 from bootstrap2 to '[CONTRACT_HASH]' --burn-cap 30 --storage-limit 1000000 --arg '"[CONTRACT_HASH]"'
Node is bootstrapped.
Estimated gas: 100555.299 units (will add 100 for safety)
Estimated storage: 10767 bytes added (will add 20 for safety)
Operation successfully injected in the node.
Operation hash is '[OPERATION_HASH]'
NOT waiting for the operation to be included.
Use command
  octez-client wait for [OPERATION_HASH] to be included --confirmations 1 --branch [BLOCK_HASH]
and/or an external block explorer to make sure that it has been included.
This sequence of operations was run:
  Manager signed operations:
    From: [PUBLIC_KEY_HASH]
    Fee to the baker: ꜩ0.010362
    Expected counter: 1
    Gas limit: 100656
    Storage limit: 10787 bytes
    Balance updates:
      [PUBLIC_KEY_HASH] ... -ꜩ0.010362
      payload fees(the block proposer) ....... +ꜩ0.010362
    Transaction:
      Amount: ꜩ0
      From: [PUBLIC_KEY_HASH]
      To: [CONTRACT_HASH]
      Parameter: "[CONTRACT_HASH]"
      This transaction was successfully applied
      Updated storage: Unit
      Updated big_maps:
        New temp(1) of type (big_map int (ticket string))
        Set temp(1)[22] to (Pair 0x01e09c4d537373c6c8ca48684433c792ceb69c9dd200 (Pair "BLUE" 1))
        Set temp(1)[48] to (Pair 0x01e09c4d537373c6c8ca48684433c792ceb69c9dd200 (Pair "BLUE" 1))
        Set temp(1)[20] to (Pair 0x01e09c4d537373c6c8ca48684433c792ceb69c9dd200 (Pair "BLUE" 1))
        Set temp(1)[67] to (Pair 0x01e09c4d537373c6c8ca48684433c792ceb69c9dd200 (Pair "BLUE" 1))
        Set temp(1)[30] to (Pair 0x01e09c4d537373c6c8ca48684433c792ceb69c9dd200 (Pair "BLUE" 1))
        Set temp(1)[33] to (Pair 0x01e09c4d537373c6c8ca48684433c792ceb69c9dd200 (Pair "BLUE" 1))
        Set temp(1)[42] to (Pair 0x01e09c4d537373c6c8ca48684433c792ceb69c9dd200 (Pair "BLUE" 1))
        Set temp(1)[13] to (Pair 0x01e09c4d537373c6c8ca48684433c792ceb69c9dd200 (Pair "BLUE" 1))
        Set temp(1)[50] to (Pair 0x01e09c4d537373c6c8ca48684433c792ceb69c9dd200 (Pair "BLUE" 1))
        Set temp(1)[84] to (Pair 0x01e09c4d537373c6c8ca48684433c792ceb69c9dd200 (Pair "BLUE" 1))
        Set temp(1)[44] to (Pair 0x01e09c4d537373c6c8ca48684433c792ceb69c9dd200 (Pair "BLUE" 1))
        Set temp(1)[41] to (Pair 0x01e09c4d537373c6c8ca48684433c792ceb69c9dd200 (Pair "BLUE" 1))
        Set temp(1)[4] to (Pair 0x01e09c4d537373c6c8ca48684433c792ceb69c9dd200 (Pair "BLUE" 1))
        Set temp(1)[73] to (Pair 0x01e09c4d537373c6c8ca48684433c792ceb69c9dd200 (Pair "BLUE" 1))
        Set temp(1)[5] to (Pair 0x01e09c4d537373c6c8ca48684433c792ceb69c9dd200 (Pair "BLUE" 1))
        Set temp(1)[28] to (Pair 0x01e09c4d537373c6c8ca48684433c792ceb69c9dd200 (Pair "BLUE" 1))
        Set temp(1)[19] to (Pair 0x01e09c4d537373c6c8ca48684433c792ceb69c9dd200 (Pair "BLUE" 1))
        Set temp(1)[9] to (Pair 0x01e09c4d537373c6c8ca48684433c792ceb69c9dd200 (Pair "BLUE" 1))
        Set temp(1)[86] to (Pair 0x01e09c4d537373c6c8ca48684433c792ceb69c9dd200 (Pair "BLUE" 1))
        Set temp(1)[76] to (Pair 0x01e09c4d537373c6c8ca48684433c792ceb69c9dd200 (Pair "BLUE" 1))
        Set temp(1)[8] to (Pair 0x01e09c4d537373c6c8ca48684433c792ceb69c9dd200 (Pair "BLUE" 1))
        Set temp(1)[97] to (Pair 0x01e09c4d537373c6c8ca48684433c792ceb69c9dd200 (Pair "BLUE" 1))
        Set temp(1)[80] to (Pair 0x01e09c4d537373c6c8ca48684433c792ceb69c9dd200 (Pair "BLUE" 1))
        Set temp(1)[45] to (Pair 0x01e09c4d537373c6c8ca48684433c792ceb69c9dd200 (Pair "BLUE" 1))
        Set temp(1)[87] to (Pair 0x01e09c4d537373c6c8ca48684433c792ceb69c9dd200 (Pair "BLUE" 1))
        Set temp(1)[1] to (Pair 0x01e09c4d537373c6c8ca48684433c792ceb69c9dd200 (Pair "BLUE" 1))
        Set temp(1)[26] to (Pair 0x01e09c4d537373c6c8ca48684433c792ceb69c9dd200 (Pair "BLUE" 1))
        Set temp(1)[38] to (Pair 0x01e09c4d537373c6c8ca48684433c792ceb69c9dd200 (Pair "BLUE" 1))
        Set temp(1)[65] to (Pair 0x01e09c4d537373c6c8ca48684433c792ceb69c9dd200 (Pair "BLUE" 1))
        Set temp(1)[99] to (Pair 0x01e09c4d537373c6c8ca48684433c792ceb69c9dd200 (Pair "BLUE" 1))
        Set temp(1)[69] to (Pair 0x01e09c4d537373c6c8ca48684433c792ceb69c9dd200 (Pair "BLUE" 1))
        Set temp(1)[2] to (Pair 0x01e09c4d537373c6c8ca48684433c792ceb69c9dd200 (Pair "BLUE" 1))
        Set temp(1)[81] to (Pair 0x01e09c4d537373c6c8ca48684433c792ceb69c9dd200 (Pair "BLUE" 1))
        Set temp(1)[82] to (Pair 0x01e09c4d537373c6c8ca48684433c792ceb69c9dd200 (Pair "BLUE" 1))
        Set temp(1)[64] to (Pair 0x01e09c4d537373c6c8ca48684433c792ceb69c9dd200 (Pair "BLUE" 1))
        Set temp(1)[92] to (Pair 0x01e09c4d537373c6c8ca48684433c792ceb69c9dd200 (Pair "BLUE" 1))
        Set temp(1)[90] to (Pair 0x01e09c4d537373c6c8ca48684433c792ceb69c9dd200 (Pair "BLUE" 1))
        Set temp(1)[98] to (Pair 0x01e09c4d537373c6c8ca48684433c792ceb69c9dd200 (Pair "BLUE" 1))
        Set temp(1)[37] to (Pair 0x01e09c4d537373c6c8ca48684433c792ceb69c9dd200 (Pair "BLUE" 1))
        Set temp(1)[66] to (Pair 0x01e09c4d537373c6c8ca48684433c792ceb69c9dd200 (Pair "BLUE" 1))
        Set temp(1)[32] to (Pair 0x01e09c4d537373c6c8ca48684433c792ceb69c9dd200 (Pair "BLUE" 1))
        Set temp(1)[71] to (Pair 0x01e09c4d537373c6c8ca48684433c792ceb69c9dd200 (Pair "BLUE" 1))
        Set temp(1)[51] to (Pair 0x01e09c4d537373c6c8ca48684433c792ceb69c9dd200 (Pair "BLUE" 1))
        Set temp(1)[56] to (Pair 0x01e09c4d537373c6c8ca48684433c792ceb69c9dd200 (Pair "BLUE" 1))
        Set temp(1)[14] to (Pair 0x01e09c4d537373c6c8ca48684433c792ceb69c9dd200 (Pair "BLUE" 1))
        Set temp(1)[12] to (Pair 0x01e09c4d537373c6c8ca48684433c792ceb69c9dd200 (Pair "BLUE" 1))
        Set temp(1)[85] to (Pair 0x01e09c4d537373c6c8ca48684433c792ceb69c9dd200 (Pair "BLUE" 1))
        Set temp(1)[47] to (Pair 0x01e09c4d537373c6c8ca48684433c792ceb69c9dd200 (Pair "BLUE" 1))
        Set temp(1)[74] to (Pair 0x01e09c4d537373c6c8ca48684433c792ceb69c9dd200 (Pair "BLUE" 1))
        Set temp(1)[18] to (Pair 0x01e09c4d537373c6c8ca48684433c792ceb69c9dd200 (Pair "BLUE" 1))
        Set temp(1)[10] to (Pair 0x01e09c4d537373c6c8ca48684433c792ceb69c9dd200 (Pair "BLUE" 1))
        Set temp(1)[35] to (Pair 0x01e09c4d537373c6c8ca48684433c792ceb69c9dd200 (Pair "BLUE" 1))
        Set temp(1)[96] to (Pair 0x01e09c4d537373c6c8ca48684433c792ceb69c9dd200 (Pair "BLUE" 1))
        Set temp(1)[27] to (Pair 0x01e09c4d537373c6c8ca48684433c792ceb69c9dd200 (Pair "BLUE" 1))
        Set temp(1)[77] to (Pair 0x01e09c4d537373c6c8ca48684433c792ceb69c9dd200 (Pair "BLUE" 1))
        Set temp(1)[62] to (Pair 0x01e09c4d537373c6c8ca48684433c792ceb69c9dd200 (Pair "BLUE" 1))
        Set temp(1)[58] to (Pair 0x01e09c4d537373c6c8ca48684433c792ceb69c9dd200 (Pair "BLUE" 1))
        Set temp(1)[25] to (Pair 0x01e09c4d537373c6c8ca48684433c792ceb69c9dd200 (Pair "BLUE" 1))
        Set temp(1)[94] to (Pair 0x01e09c4d537373c6c8ca48684433c792ceb69c9dd200 (Pair "BLUE" 1))
        Set temp(1)[60] to (Pair 0x01e09c4d537373c6c8ca48684433c792ceb69c9dd200 (Pair "BLUE" 1))
        Set temp(1)[7] to (Pair 0x01e09c4d537373c6c8ca48684433c792ceb69c9dd200 (Pair "BLUE" 1))
        Set temp(1)[53] to (Pair 0x01e09c4d537373c6c8ca48684433c792ceb69c9dd200 (Pair "BLUE" 1))
        Set temp(1)[11] to (Pair 0x01e09c4d537373c6c8ca48684433c792ceb69c9dd200 (Pair "BLUE" 1))
        Set temp(1)[17] to (Pair 0x01e09c4d537373c6c8ca48684433c792ceb69c9dd200 (Pair "BLUE" 1))
        Set temp(1)[83] to (Pair 0x01e09c4d537373c6c8ca48684433c792ceb69c9dd200 (Pair "BLUE" 1))
        Set temp(1)[72] to (Pair 0x01e09c4d537373c6c8ca48684433c792ceb69c9dd200 (Pair "BLUE" 1))
        Set temp(1)[6] to (Pair 0x01e09c4d537373c6c8ca48684433c792ceb69c9dd200 (Pair "BLUE" 1))
        Set temp(1)[88] to (Pair 0x01e09c4d537373c6c8ca48684433c792ceb69c9dd200 (Pair "BLUE" 1))
        Set temp(1)[75] to (Pair 0x01e09c4d537373c6c8ca48684433c792ceb69c9dd200 (Pair "BLUE" 1))
        Set temp(1)[3] to (Pair 0x01e09c4d537373c6c8ca48684433c792ceb69c9dd200 (Pair "BLUE" 1))
        Set temp(1)[70] to (Pair 0x01e09c4d537373c6c8ca48684433c792ceb69c9dd200 (Pair "BLUE" 1))
        Set temp(1)[52] to (Pair 0x01e09c4d537373c6c8ca48684433c792ceb69c9dd200 (Pair "BLUE" 1))
        Set temp(1)[95] to (Pair 0x01e09c4d537373c6c8ca48684433c792ceb69c9dd200 (Pair "BLUE" 1))
        Set temp(1)[68] to (Pair 0x01e09c4d537373c6c8ca48684433c792ceb69c9dd200 (Pair "BLUE" 1))
        Set temp(1)[78] to (Pair 0x01e09c4d537373c6c8ca48684433c792ceb69c9dd200 (Pair "BLUE" 1))
        Set temp(1)[23] to (Pair 0x01e09c4d537373c6c8ca48684433c792ceb69c9dd200 (Pair "BLUE" 1))
        Set temp(1)[79] to (Pair 0x01e09c4d537373c6c8ca48684433c792ceb69c9dd200 (Pair "BLUE" 1))
        Set temp(1)[59] to (Pair 0x01e09c4d537373c6c8ca48684433c792ceb69c9dd200 (Pair "BLUE" 1))
        Set temp(1)[100] to (Pair 0x01e09c4d537373c6c8ca48684433c792ceb69c9dd200 (Pair "BLUE" 1))
        Set temp(1)[24] to (Pair 0x01e09c4d537373c6c8ca48684433c792ceb69c9dd200 (Pair "BLUE" 1))
        Set temp(1)[21] to (Pair 0x01e09c4d537373c6c8ca48684433c792ceb69c9dd200 (Pair "BLUE" 1))
        Set temp(1)[49] to (Pair 0x01e09c4d537373c6c8ca48684433c792ceb69c9dd200 (Pair "BLUE" 1))
        Set temp(1)[93] to (Pair 0x01e09c4d537373c6c8ca48684433c792ceb69c9dd200 (Pair "BLUE" 1))
        Set temp(1)[39] to (Pair 0x01e09c4d537373c6c8ca48684433c792ceb69c9dd200 (Pair "BLUE" 1))
        Set temp(1)[63] to (Pair 0x01e09c4d537373c6c8ca48684433c792ceb69c9dd200 (Pair "BLUE" 1))
        Set temp(1)[55] to (Pair 0x01e09c4d537373c6c8ca48684433c792ceb69c9dd200 (Pair "BLUE" 1))
        Set temp(1)[15] to (Pair 0x01e09c4d537373c6c8ca48684433c792ceb69c9dd200 (Pair "BLUE" 1))
        Set temp(1)[16] to (Pair 0x01e09c4d537373c6c8ca48684433c792ceb69c9dd200 (Pair "BLUE" 1))
        Set temp(1)[31] to (Pair 0x01e09c4d537373c6c8ca48684433c792ceb69c9dd200 (Pair "BLUE" 1))
        Set temp(1)[43] to (Pair 0x01e09c4d537373c6c8ca48684433c792ceb69c9dd200 (Pair "BLUE" 1))
        Set temp(1)[29] to (Pair 0x01e09c4d537373c6c8ca48684433c792ceb69c9dd200 (Pair "BLUE" 1))
        Set temp(1)[54] to (Pair 0x01e09c4d537373c6c8ca48684433c792ceb69c9dd200 (Pair "BLUE" 1))
        Set temp(1)[89] to (Pair 0x01e09c4d537373c6c8ca48684433c792ceb69c9dd200 (Pair "BLUE" 1))
        Set temp(1)[36] to (Pair 0x01e09c4d537373c6c8ca48684433c792ceb69c9dd200 (Pair "BLUE" 1))
        Set temp(1)[46] to (Pair 0x01e09c4d537373c6c8ca48684433c792ceb69c9dd200 (Pair "BLUE" 1))
        Set temp(1)[91] to (Pair 0x01e09c4d537373c6c8ca48684433c792ceb69c9dd200 (Pair "BLUE" 1))
        Set temp(1)[61] to (Pair 0x01e09c4d537373c6c8ca48684433c792ceb69c9dd200 (Pair "BLUE" 1))
        Set temp(1)[34] to (Pair 0x01e09c4d537373c6c8ca48684433c792ceb69c9dd200 (Pair "BLUE" 1))
        Set temp(1)[57] to (Pair 0x01e09c4d537373c6c8ca48684433c792ceb69c9dd200 (Pair "BLUE" 1))
        Set temp(1)[40] to (Pair 0x01e09c4d537373c6c8ca48684433c792ceb69c9dd200 (Pair "BLUE" 1))
      Storage size: 320 bytes
      Paid storage size diff: 67 bytes
      Consumed gas: 50736.525
      Balance updates:
        [PUBLIC_KEY_HASH] ... -ꜩ0.01675
        storage fees ........................... +ꜩ0.01675
      Internal operations:
        Internal Transaction:
          Amount: ꜩ0
          From: [CONTRACT_HASH]
          To: [CONTRACT_HASH]
          Parameter: -1
          This transaction was successfully applied
          Updated storage: 5
          Updated big_maps:
            Clear map(4)
            Copy temp(1) to map(5)
          Storage size: 10783 bytes
          Paid storage size diff: 10700 bytes
          Consumed gas: 49819.806
          Balance updates:
            [PUBLIC_KEY_HASH] ... -ꜩ2.675
            storage fees ........................... +ꜩ2.675
          Ticket updates:
            Ticketer: [CONTRACT_HASH]
            Content type: string
            Content: "BLUE"
            Account updates:
              [CONTRACT_HASH] ... +100

