
./octez-client --wait none transfer 0 from bootstrap1 to '[CONTRACT_HASH]' --burn-cap 1 --arg '"[SMART_ROLLUP_HASH]"'
Node is bootstrapped.
Estimated gas: 4513.134 units (will add 100 for safety)
Estimated storage: 132 bytes added (will add 20 for safety)
Operation successfully injected in the node.
Operation hash is '[OPERATION_HASH]'
NOT waiting for the operation to be included.
Use command
  octez-client wait for [OPERATION_HASH] to be included --confirmations 1 --branch [BLOCK_HASH]
and/or an external block explorer to make sure that it has been included.
This sequence of operations was run:
  Manager signed operations:
    From: [PUBLIC_KEY_HASH]
    Fee to the baker: ꜩ0.000757
    Expected counter: 3
    Gas limit: 4614
    Storage limit: 152 bytes
    Balance updates:
      [PUBLIC_KEY_HASH] ... -ꜩ0.000757
      payload fees(the block proposer) ....... +ꜩ0.000757
    Transaction:
      Amount: ꜩ0
      From: [PUBLIC_KEY_HASH]
      To: [CONTRACT_HASH]
      Parameter: "[SMART_ROLLUP_HASH]"
      This transaction was successfully applied
      Updated storage: Unit
      Storage size: 197 bytes
      Paid storage size diff: 132 bytes
      Consumed gas: 3504.115
      Balance updates:
        [PUBLIC_KEY_HASH] ... -ꜩ0.033
        storage fees ........................... +ꜩ0.033
      Internal operations:
        Internal Transaction:
          Amount: ꜩ0
          From: [CONTRACT_HASH]
          To: [SMART_ROLLUP_HASH]
          Parameter: { Pair 0x01fd32c99a7029e62387c85d6e9394626ecbcaa97700 (Pair "Ticket2" 1) ;
                       Pair 0x01fd32c99a7029e62387c85d6e9394626ecbcaa97700 (Pair "Ticket" 1) }
          This transaction was successfully applied
          Consumed gas: 1009.053
          Ticket updates:
            Ticketer: [CONTRACT_HASH]
            Content type: string
            Content: "Ticket"
            Account updates:
              [SMART_ROLLUP_HASH] ... +1
            Ticketer: [CONTRACT_HASH]
            Content type: string
            Content: "Ticket2"
            Account updates:
              [SMART_ROLLUP_HASH] ... +1

